fpga/simulation/qsim/rfid-conformance-tester.msim.vcd
$comment
	File created using the following command:
		vcd file rfid-conformance-tester.msim.vcd -direction
$end
$date
	Mon Aug 16 17:57:06 2021
$end
$version
	ModelSim Version 2020.1
$end
$timescale
	1ps
$end

$scope module fm0_encoder_vhd_vec_tst $end
$var wire 1 ! clk $end
$var wire 1 " data_in [11] $end
$var wire 1 # data_in [10] $end
$var wire 1 $ data_in [9] $end
$var wire 1 % data_in [8] $end
$var wire 1 & data_in [7] $end
$var wire 1 ' data_in [6] $end
$var wire 1 ( data_in [5] $end
$var wire 1 ) data_in [4] $end
$var wire 1 * data_in [3] $end
$var wire 1 + data_in [2] $end
$var wire 1 , data_in [1] $end
$var wire 1 - data_in [0] $end
$var wire 1 . data_out $end
$var wire 1 / encoded_data_out [15] $end
$var wire 1 0 encoded_data_out [14] $end
$var wire 1 1 encoded_data_out [13] $end
$var wire 1 2 encoded_data_out [12] $end
$var wire 1 3 encoded_data_out [11] $end
$var wire 1 4 encoded_data_out [10] $end
$var wire 1 5 encoded_data_out [9] $end
$var wire 1 6 encoded_data_out [8] $end
$var wire 1 7 encoded_data_out [7] $end
$var wire 1 8 encoded_data_out [6] $end
$var wire 1 9 encoded_data_out [5] $end
$var wire 1 : encoded_data_out [4] $end
$var wire 1 ; encoded_data_out [3] $end
$var wire 1 < encoded_data_out [2] $end
$var wire 1 = encoded_data_out [1] $end
$var wire 1 > encoded_data_out [0] $end
$var wire 1 ? is_free $end
$var wire 1 @ mask_out [3] $end
$var wire 1 A mask_out [2] $end
$var wire 1 B mask_out [1] $end
$var wire 1 C mask_out [0] $end
$var wire 1 D need_to_process $end
$var wire 1 E not_encoded_data_out [7] $end
$var wire 1 F not_encoded_data_out [6] $end
$var wire 1 G not_encoded_data_out [5] $end
$var wire 1 H not_encoded_data_out [4] $end
$var wire 1 I not_encoded_data_out [3] $end
$var wire 1 J not_encoded_data_out [2] $end
$var wire 1 K not_encoded_data_out [1] $end
$var wire 1 L not_encoded_data_out [0] $end
$var wire 1 M reduced_clk_out $end
$var wire 1 N reset_i_out $end
$var wire 1 O tari [11] $end
$var wire 1 P tari [10] $end
$var wire 1 Q tari [9] $end
$var wire 1 R tari [8] $end
$var wire 1 S tari [7] $end
$var wire 1 T tari [6] $end
$var wire 1 U tari [5] $end
$var wire 1 V tari [4] $end
$var wire 1 W tari [3] $end
$var wire 1 X tari [2] $end
$var wire 1 Y tari [1] $end
$var wire 1 Z tari [0] $end

$scope module i1 $end
$var wire 1 [ gnd $end
$var wire 1 \ vcc $end
$var wire 1 ] unknown $end
$var wire 1 ^ devoe $end
$var wire 1 _ devclrn $end
$var wire 1 ` devpor $end
$var wire 1 a ww_devoe $end
$var wire 1 b ww_devclrn $end
$var wire 1 c ww_devpor $end
$var wire 1 d ww_clk $end
$var wire 1 e ww_need_to_process $end
$var wire 1 f ww_tari [11] $end
$var wire 1 g ww_tari [10] $end
$var wire 1 h ww_tari [9] $end
$var wire 1 i ww_tari [8] $end
$var wire 1 j ww_tari [7] $end
$var wire 1 k ww_tari [6] $end
$var wire 1 l ww_tari [5] $end
$var wire 1 m ww_tari [4] $end
$var wire 1 n ww_tari [3] $end
$var wire 1 o ww_tari [2] $end
$var wire 1 p ww_tari [1] $end
$var wire 1 q ww_tari [0] $end
$var wire 1 r ww_data_in [11] $end
$var wire 1 s ww_data_in [10] $end
$var wire 1 t ww_data_in [9] $end
$var wire 1 u ww_data_in [8] $end
$var wire 1 v ww_data_in [7] $end
$var wire 1 w ww_data_in [6] $end
$var wire 1 x ww_data_in [5] $end
$var wire 1 y ww_data_in [4] $end
$var wire 1 z ww_data_in [3] $end
$var wire 1 { ww_data_in [2] $end
$var wire 1 | ww_data_in [1] $end
$var wire 1 } ww_data_in [0] $end
$var wire 1 ~ ww_reduced_clk_out $end
$var wire 1 !! ww_reset_i_out $end
$var wire 1 "! ww_encoded_data_out [15] $end
$var wire 1 #! ww_encoded_data_out [14] $end
$var wire 1 $! ww_encoded_data_out [13] $end
$var wire 1 %! ww_encoded_data_out [12] $end
$var wire 1 &! ww_encoded_data_out [11] $end
$var wire 1 '! ww_encoded_data_out [10] $end
$var wire 1 (! ww_encoded_data_out [9] $end
$var wire 1 )! ww_encoded_data_out [8] $end
$var wire 1 *! ww_encoded_data_out [7] $end
$var wire 1 +! ww_encoded_data_out [6] $end
$var wire 1 ,! ww_encoded_data_out [5] $end
$var wire 1 -! ww_encoded_data_out [4] $end
$var wire 1 .! ww_encoded_data_out [3] $end
$var wire 1 /! ww_encoded_data_out [2] $end
$var wire 1 0! ww_encoded_data_out [1] $end
$var wire 1 1! ww_encoded_data_out [0] $end
$var wire 1 2! ww_not_encoded_data_out [7] $end
$var wire 1 3! ww_not_encoded_data_out [6] $end
$var wire 1 4! ww_not_encoded_data_out [5] $end
$var wire 1 5! ww_not_encoded_data_out [4] $end
$var wire 1 6! ww_not_encoded_data_out [3] $end
$var wire 1 7! ww_not_encoded_data_out [2] $end
$var wire 1 8! ww_not_encoded_data_out [1] $end
$var wire 1 9! ww_not_encoded_data_out [0] $end
$var wire 1 :! ww_mask_out [3] $end
$var wire 1 ;! ww_mask_out [2] $end
$var wire 1 <! ww_mask_out [1] $end
$var wire 1 =! ww_mask_out [0] $end
$var wire 1 >! ww_data_out $end
$var wire 1 ?! ww_is_free $end
$var wire 1 @! \need_to_process~input_o\ $end
$var wire 1 A! \tari[0]~input_o\ $end
$var wire 1 B! \tari[1]~input_o\ $end
$var wire 1 C! \tari[2]~input_o\ $end
$var wire 1 D! \tari[3]~input_o\ $end
$var wire 1 E! \tari[4]~input_o\ $end
$var wire 1 F! \tari[5]~input_o\ $end
$var wire 1 G! \tari[6]~input_o\ $end
$var wire 1 H! \tari[7]~input_o\ $end
$var wire 1 I! \tari[8]~input_o\ $end
$var wire 1 J! \tari[9]~input_o\ $end
$var wire 1 K! \tari[10]~input_o\ $end
$var wire 1 L! \tari[11]~input_o\ $end
$var wire 1 M! \~QUARTUS_CREATED_GND~I_combout\ $end
$var wire 1 N! \clk~input_o\ $end
$var wire 1 O! \clk~inputCLKENA0_outclk\ $end
$var wire 1 P! \clock_reducer:i2[5]~q\ $end
$var wire 1 Q! \Add1~17_sumout\ $end
$var wire 1 R! \clock_reducer:i2[0]~q\ $end
$var wire 1 S! \Add1~18\ $end
$var wire 1 T! \Add1~21_sumout\ $end
$var wire 1 U! \clock_reducer:i2[1]~feeder_combout\ $end
$var wire 1 V! \clock_reducer:i2[1]~q\ $end
$var wire 1 W! \Add1~22\ $end
$var wire 1 X! \Add1~25_sumout\ $end
$var wire 1 Y! \clock_reducer:i2[2]~q\ $end
$var wire 1 Z! \Add1~26\ $end
$var wire 1 [! \Add1~29_sumout\ $end
$var wire 1 \! \clock_reducer:i2[3]~q\ $end
$var wire 1 ]! \Add1~30\ $end
$var wire 1 ^! \Add1~33_sumout\ $end
$var wire 1 _! \clock_reducer:i2[4]~feeder_combout\ $end
$var wire 1 `! \clock_reducer:i2[4]~q\ $end
$var wire 1 a! \Add1~34\ $end
$var wire 1 b! \Add1~37_sumout\ $end
$var wire 1 c! \clock_reducer:i2[9]~q\ $end
$var wire 1 d! \Add1~38\ $end
$var wire 1 e! \Add1~1_sumout\ $end
$var wire 1 f! \clock_reducer:i2[6]~q\ $end
$var wire 1 g! \Add1~2\ $end
$var wire 1 h! \Add1~6\ $end
$var wire 1 i! \Add1~9_sumout\ $end
$var wire 1 j! \clock_reducer:i2[8]~q\ $end
$var wire 1 k! \Add1~10\ $end
$var wire 1 l! \Add1~13_sumout\ $end
$var wire 1 m! \Equal1~1_combout\ $end
$var wire 1 n! \Equal1~2_combout\ $end
$var wire 1 o! \clock_reducer:i2[7]~q\ $end
$var wire 1 p! \Add1~5_sumout\ $end
$var wire 1 q! \Equal1~0_combout\ $end
$var wire 1 r! \reduced_clk~0_combout\ $end
$var wire 1 s! \reduced_clk~q\ $end
$var wire 1 t! \data_in[11]~input_o\ $end
$var wire 1 u! \data_in[9]~input_o\ $end
$var wire 1 v! \data_in[10]~input_o\ $end
$var wire 1 w! \data_in[1]~input_o\ $end
$var wire 1 x! \data_in[3]~input_o\ $end
$var wire 1 y! \i~3_combout\ $end
$var wire 1 z! \data_encoder:i[0]~q\ $end
$var wire 1 {! \data_in[2]~input_o\ $end
$var wire 1 |! \i~0_combout\ $end
$var wire 1 }! \data_encoder:i[1]~q\ $end
$var wire 1 ~! \i~1_combout\ $end
$var wire 1 !" \data_encoder:i[2]~q\ $end
$var wire 1 "" \data_in[0]~input_o\ $end
$var wire 1 #" \Equal0~0_combout\ $end
$var wire 1 $" \Decoder0~7_combout\ $end
$var wire 1 %" \i~2_combout\ $end
$var wire 1 &" \data_encoder:i[3]~q\ $end
$var wire 1 '" \data_in[5]~input_o\ $end
$var wire 1 (" \data_in[7]~input_o\ $end
$var wire 1 )" \data_in[6]~input_o\ $end
$var wire 1 *" \data_in[4]~input_o\ $end
$var wire 1 +" \Mux0~4_combout\ $end
$var wire 1 ," \data_in[8]~input_o\ $end
$var wire 1 -" \Mux0~0_combout\ $end
$var wire 1 ." \reset_i_out~reg0_q\ $end
$var wire 1 /" \encoded_data~0_combout\ $end
$var wire 1 0" \current_start_value~q\ $end
$var wire 1 1" \encoded_data[0]~1_combout\ $end
$var wire 1 2" \Decoder0~0_combout\ $end
$var wire 1 3" \encoded_data[1]~feeder_combout\ $end
$var wire 1 4" \encoded_data[2]~3_combout\ $end
$var wire 1 5" \Decoder0~1_combout\ $end
$var wire 1 6" \encoded_data[2]~DUPLICATE_q\ $end
$var wire 1 7" \encoded_data[3]~feeder_combout\ $end
$var wire 1 8" \encoded_data[4]~5_combout\ $end
$var wire 1 9" \Decoder0~2_combout\ $end
$var wire 1 :" \encoded_data[5]~feeder_combout\ $end
$var wire 1 ;" \encoded_data[6]~7_combout\ $end
$var wire 1 <" \Decoder0~3_combout\ $end
$var wire 1 =" \encoded_data[8]~9_combout\ $end
$var wire 1 >" \Decoder0~4_combout\ $end
$var wire 1 ?" \encoded_data[10]~11_combout\ $end
$var wire 1 @" \Decoder0~5_combout\ $end
$var wire 1 A" \encoded_data[12]~13_combout\ $end
$var wire 1 B" \Decoder0~6_combout\ $end
$var wire 1 C" \encoded_data[14]~15_combout\ $end
$var wire 1 D" \encoded_data[14]~DUPLICATE_q\ $end
$var wire 1 E" \mask_out[0]~reg0_q\ $end
$var wire 1 F" \mask_out[1]~reg0feeder_combout\ $end
$var wire 1 G" \mask_out[1]~reg0_q\ $end
$var wire 1 H" \mask_out[2]~reg0feeder_combout\ $end
$var wire 1 I" \mask_out[2]~reg0_q\ $end
$var wire 1 J" \mask_out[3]~reg0_q\ $end
$var wire 1 K" \Equal2~0_combout\ $end
$var wire 1 L" \i3~1_combout\ $end
$var wire 1 M" \sending_data:i3[0]~q\ $end
$var wire 1 N" \Add2~0_combout\ $end
$var wire 1 O" \i3~0_combout\ $end
$var wire 1 P" \sending_data:i3[1]~q\ $end
$var wire 1 Q" \i3~3_combout\ $end
$var wire 1 R" \sending_data:i3[3]~q\ $end
$var wire 1 S" \Add2~2_combout\ $end
$var wire 1 T" \i3~2_combout\ $end
$var wire 1 U" \sending_data:i3[2]~q\ $end
$var wire 1 V" \Add2~1_combout\ $end
$var wire 1 W" \Mux1~3_combout\ $end
$var wire 1 X" \Mux1~1_combout\ $end
$var wire 1 Y" \Mux1~2_combout\ $end
$var wire 1 Z" \Mux1~0_combout\ $end
$var wire 1 [" \Mux1~4_combout\ $end
$var wire 1 \" \tmp_data_out~q\ $end
$var wire 1 ]" encoded_data [15] $end
$var wire 1 ^" encoded_data [14] $end
$var wire 1 _" encoded_data [13] $end
$var wire 1 `" encoded_data [12] $end
$var wire 1 a" encoded_data [11] $end
$var wire 1 b" encoded_data [10] $end
$var wire 1 c" encoded_data [9] $end
$var wire 1 d" encoded_data [8] $end
$var wire 1 e" encoded_data [7] $end
$var wire 1 f" encoded_data [6] $end
$var wire 1 g" encoded_data [5] $end
$var wire 1 h" encoded_data [4] $end
$var wire 1 i" encoded_data [3] $end
$var wire 1 j" encoded_data [2] $end
$var wire 1 k" encoded_data [1] $end
$var wire 1 l" encoded_data [0] $end
$var wire 1 m" \ALT_INV_data_in[2]~input_o\ $end
$var wire 1 n" \ALT_INV_data_in[1]~input_o\ $end
$var wire 1 o" \ALT_INV_data_in[0]~input_o\ $end
$var wire 1 p" \ALT_INV_data_in[3]~input_o\ $end
$var wire 1 q" \ALT_INV_data_in[11]~input_o\ $end
$var wire 1 r" \ALT_INV_data_in[10]~input_o\ $end
$var wire 1 s" \ALT_INV_data_in[9]~input_o\ $end
$var wire 1 t" \ALT_INV_data_in[8]~input_o\ $end
$var wire 1 u" \ALT_INV_data_in[7]~input_o\ $end
$var wire 1 v" \ALT_INV_data_in[6]~input_o\ $end
$var wire 1 w" \ALT_INV_data_in[5]~input_o\ $end
$var wire 1 x" \ALT_INV_data_in[4]~input_o\ $end
$var wire 1 y" \ALT_INV_Equal1~1_combout\ $end
$var wire 1 z" \ALT_INV_Equal2~0_combout\ $end
$var wire 1 {" \ALT_INV_Equal0~0_combout\ $end
$var wire 1 |" \ALT_INV_Add2~2_combout\ $end
$var wire 1 }" \ALT_INV_sending_data:i3[3]~q\ $end
$var wire 1 ~" \ALT_INV_Mux1~3_combout\ $end
$var wire 1 !# \ALT_INV_Mux1~2_combout\ $end
$var wire 1 "# \ALT_INV_Mux1~1_combout\ $end
$var wire 1 ## \ALT_INV_Mux1~0_combout\ $end
$var wire 1 $# \ALT_INV_Add2~1_combout\ $end
$var wire 1 %# \ALT_INV_sending_data:i3[2]~q\ $end
$var wire 1 &# \ALT_INV_Add2~0_combout\ $end
$var wire 1 '# \ALT_INV_sending_data:i3[0]~q\ $end
$var wire 1 (# \ALT_INV_sending_data:i3[1]~q\ $end
$var wire 1 )# \ALT_INV_data_encoder:i[3]~q\ $end
$var wire 1 *# \ALT_INV_Decoder0~7_combout\ $end
$var wire 1 +# \ALT_INV_encoded_data~0_combout\ $end
$var wire 1 ,# \ALT_INV_data_encoder:i[2]~q\ $end
$var wire 1 -# \ALT_INV_data_encoder:i[0]~q\ $end
$var wire 1 .# \ALT_INV_data_encoder:i[1]~q\ $end
$var wire 1 /# \ALT_INV_current_start_value~q\ $end
$var wire 1 0# \ALT_INV_Equal1~0_combout\ $end
$var wire 1 1# ALT_INV_encoded_data [15] $end
$var wire 1 2# ALT_INV_encoded_data [14] $end
$var wire 1 3# ALT_INV_encoded_data [13] $end
$var wire 1 4# ALT_INV_encoded_data [12] $end
$var wire 1 5# ALT_INV_encoded_data [11] $end
$var wire 1 6# ALT_INV_encoded_data [10] $end
$var wire 1 7# ALT_INV_encoded_data [9] $end
$var wire 1 8# ALT_INV_encoded_data [8] $end
$var wire 1 9# ALT_INV_encoded_data [7] $end
$var wire 1 :# ALT_INV_encoded_data [6] $end
$var wire 1 ;# ALT_INV_encoded_data [5] $end
$var wire 1 <# ALT_INV_encoded_data [4] $end
$var wire 1 =# ALT_INV_encoded_data [3] $end
$var wire 1 ># ALT_INV_encoded_data [2] $end
$var wire 1 ?# ALT_INV_encoded_data [1] $end
$var wire 1 @# ALT_INV_encoded_data [0] $end
$var wire 1 A# \ALT_INV_reduced_clk~q\ $end
$var wire 1 B# \ALT_INV_Mux0~4_combout\ $end
$var wire 1 C# \ALT_INV_clock_reducer:i2[5]~q\ $end
$var wire 1 D# \ALT_INV_clock_reducer:i2[4]~q\ $end
$var wire 1 E# \ALT_INV_clock_reducer:i2[3]~q\ $end
$var wire 1 F# \ALT_INV_clock_reducer:i2[2]~q\ $end
$var wire 1 G# \ALT_INV_clock_reducer:i2[1]~q\ $end
$var wire 1 H# \ALT_INV_clock_reducer:i2[0]~q\ $end
$var wire 1 I# \ALT_INV_clock_reducer:i2[9]~q\ $end
$var wire 1 J# \ALT_INV_clock_reducer:i2[8]~q\ $end
$var wire 1 K# \ALT_INV_clock_reducer:i2[7]~q\ $end
$var wire 1 L# \ALT_INV_clock_reducer:i2[6]~q\ $end
$var wire 1 M# \ALT_INV_Mux0~0_combout\ $end
$var wire 1 N# \ALT_INV_Add1~37_sumout\ $end
$var wire 1 O# \ALT_INV_Add1~33_sumout\ $end
$var wire 1 P# \ALT_INV_Add1~29_sumout\ $end
$var wire 1 Q# \ALT_INV_Add1~25_sumout\ $end
$var wire 1 R# \ALT_INV_Add1~21_sumout\ $end
$var wire 1 S# \ALT_INV_Add1~17_sumout\ $end
$var wire 1 T# \ALT_INV_Add1~13_sumout\ $end
$var wire 1 U# \ALT_INV_Add1~9_sumout\ $end
$var wire 1 V# \ALT_INV_Add1~5_sumout\ $end
$var wire 1 W# \ALT_INV_Add1~1_sumout\ $end
$upscope $end
$upscope $end
$enddefinitions $end
#0
$dumpvars
0!
0.
0?
0D
0M
0N
0[
1\
x]
1^
1_
1`
1a
1b
1c
0d
0e
0~
0!!
0>!
0?!
0@!
0A!
0B!
0C!
0D!
0E!
0F!
0G!
0H!
0I!
0J!
0K!
0L!
xM!
0N!
0O!
0P!
1Q!
0R!
0S!
0T!
0U!
0V!
0W!
0X!
0Y!
0Z!
0[!
0\!
0]!
0^!
0_!
0`!
0a!
0b!
0c!
0d!
0e!
0f!
0g!
0h!
0i!
0j!
0k!
0l!
0m!
0n!
0o!
0p!
0q!
0r!
0s!
1t!
1u!
1v!
0w!
1x!
1y!
0z!
0{!
0|!
0}!
0~!
0!"
0""
0#"
0$"
0%"
0&"
1'"
1("
1)"
0*"
0+"
1,"
0-"
0."
0/"
00"
11"
12"
03"
14"
05"
06"
07"
18"
09"
0:"
1;"
0<"
1="
0>"
1?"
0@"
1A"
0B"
1C"
0D"
0E"
0F"
0G"
0H"
0I"
0J"
0K"
1L"
0M"
0N"
0O"
0P"
0Q"
0R"
0S"
0T"
0U"
0V"
0W"
0X"
0Y"
0Z"
0["
0\"
1m"
1n"
1o"
0p"
0q"
0r"
0s"
0t"
0u"
0v"
0w"
1x"
1y"
1z"
1{"
1|"
1}"
1~"
1!#
1"#
1##
1$#
1%#
1&#
1'#
1(#
1)#
1*#
1+#
1,#
1-#
1.#
1/#
10#
1A#
1B#
1C#
1D#
1E#
1F#
1G#
1H#
1I#
1J#
1K#
1L#
1M#
1N#
1O#
1P#
1Q#
1R#
0S#
1T#
1U#
1V#
1W#
1"
1#
1$
1%
1&
1'
1(
0)
1*
0+
0,
0-
0O
0P
0Q
0R
0S
0T
0U
0V
0W
0X
0Y
0Z
0/
00
01
02
03
04
05
06
07
08
09
0:
0;
0<
0=
0>
1E
1F
1G
1H
1I
1J
1K
0L
0@
0A
0B
0C
0f
0g
0h
0i
0j
0k
0l
0m
0n
0o
0p
0q
1r
1s
1t
1u
1v
1w
1x
0y
1z
0{
0|
0}
0"!
0#!
0$!
0%!
0&!
0'!
0(!
0)!
0*!
0+!
0,!
0-!
0.!
0/!
00!
01!
12!
13!
14!
15!
16!
17!
18!
09!
0:!
0;!
0<!
0=!
0]"
0^"
0_"
0`"
0a"
0b"
0c"
0d"
0e"
0f"
0g"
0h"
0i"
0j"
0k"
0l"
11#
12#
13#
14#
15#
16#
17#
18#
19#
1:#
1;#
1<#
1=#
1>#
1?#
1@#
$end
#10000
1!
1d
1N!
1O!
1R!
1z!
1l"
0@#
0-#
0H#
0Q!
1S!
0y!
1|!
1+"
02"
15"
1Y"
0!#
0B#
1S#
11!
1T!
1-"
0R#
1>
0M#
1U!
1m!
1q!
1/"
00#
0y"
0+#
1n!
1r!
13"
17"
1:"
#20000
0!
0d
0N!
0O!
#30000
1!
1d
1N!
1O!
1s!
0R!
0z!
1}!
1."
10"
16"
1i"
1E"
1j"
0A#
1M"
0>#
0=#
0/#
0.#
1-#
1H#
0r!
0'#
1Q!
0S!
1y!
05"
19"
1F"
0/"
01"
04"
08"
0;"
0="
0?"
0A"
0C"
1~
0L"
1N"
1["
1+#
0S#
1=!
1.!
1/!
1!!
0T!
0&#
1M
0m!
0q!
03"
07"
0:"
1R#
1C
1<
1;
1N
1O"
1Z"
10#
1y"
0U!
0##
0n!
1r!
#40000
0!
0d
0N!
0O!
#50000
1!
1d
1N!
1O!
1R!
1z!
00"
0E"
1G"
1/#
0-#
0H#
0Q!
1S!
0y!
0|!
1~!
09"
1<"
1/"
11"
14"
18"
1;"
1="
1?"
1A"
1C"
0+#
1S#
1<!
0=!
1T!
13"
17"
1:"
0R#
0C
1B
1U!
1m!
1q!
00#
0y"
1n!
0r!
#60000
0!
0d
0N!
0O!
#70000
1!
1d
1N!
1O!
0s!
0R!
0z!
0}!
1!"
10"
1f"
1e"
1E"
1A#
09#
0:#
0/#
0,#
1.#
1-#
1H#
1r!
1Q!
0S!
1y!
0+"
0F"
0<"
1>"
1H"
0/"
01"
04"
08"
0;"
0="
0?"
0A"
0C"
0~
1+#
1B#
0S#
1=!
1*!
1+!
0T!
0M
0m!
0q!
0-"
03"
07"
0:"
1R#
1C
18
17
1M#
10#
1y"
0U!
0n!
0r!
1/"
0+#
13"
17"
1:"
#80000
0!
0d
0N!
0O!
#90000
1!
1d
1N!
1O!
1R!
1z!
0."
1c"
0E"
0G"
1I"
07#
0-#
0H#
0Q!
1S!
0y!
1|!
1+"
0>"
1@"
0B#
1S#
1;!
0<!
0=!
1(!
0!!
1T!
1-"
0R#
0C
0B
1A
15
0N
0M#
1U!
1m!
1q!
0/"
00#
0y"
1+#
1n!
1r!
03"
07"
0:"
#100000
0!
0d
0N!
0O!
#110000
1!
1d
1N!
1O!
1s!
0R!
0z!
1}!
1."
00"
1E"
0A#
0M"
1P"
1\"
1/#
0.#
1-#
1H#
0r!
0(#
1'#
1Q!
0S!
1y!
0@"
1B"
1F"
1/"
11"
14"
18"
1;"
1="
1?"
1A"
1C"
1~
1L"
0+#
0S#
1=!
1!!
0T!
1M
1>!
0m!
0q!
13"
17"
1:"
1R#
1C
1N
10#
1y"
1.
0U!
0n!
1r!
#120000
0!
0d
0N!
0O!
#130000
1!
1d
1N!
1O!
1R!
1z!
10"
1`"
1_"
0E"
1G"
03#
04#
0/#
0-#
0H#
0Q!
1S!
0y!
0|!
0~!
1#"
1$"
0B"
0/"
01"
04"
08"
0;"
0="
0?"
0A"
0C"
1+#
0*#
0{"
1S#
1<!
0=!
1$!
1%!
1T!
03"
07"
0:"
0R#
0C
1B
12
11
1U!
1m!
1q!
00#
0y"
1n!
0r!
#140000
0!
0d
0N!
0O!
#150000
1!
1d
1N!
1O!
0s!
0R!
0z!
0}!
0!"
00"
1E"
1A#
1/#
1,#
1.#
1-#
1H#
1r!
1Q!
0S!
1y!
0+"
0F"
0#"
0$"
12"
0H"
1/"
11"
14"
18"
1;"
1="
1?"
1A"
1C"
0~
0+#
1*#
1{"
1B#
0S#
1=!
0T!
0M
0m!
0q!
0-"
13"
17"
1:"
1R#
1C
1M#
10#
1y"
0U!
0n!
0r!
0/"
1+#
03"
07"
0:"
#160000
0!
0d
0N!
0O!
#170000
1!
1d
1N!
1O!
1R!
1z!
0."
0E"
0G"
0I"
0-#
0H#
0Q!
1S!
0y!
1|!
1+"
02"
15"
0B#
1S#
0;!
0<!
0=!
0!!
1T!
1-"
0R#
0C
0B
0A
0N
0M#
1U!
1m!
1q!
1/"
00#
0y"
0+#
1n!
1r!
13"
17"
1:"
#180000
0!
0d
0N!
0O!
#190000
1!
1d
1N!
1O!
1s!
0R!
0z!
1}!
1."
10"
1E"
0A#
1M"
0/#
0.#
1-#
1H#
0r!
0'#
1Q!
0S!
1y!
05"
19"
1F"
0/"
01"
04"
08"
0;"
0="
0?"
0A"
0C"
1~
0L"
0N"
1V"
1+#
0S#
1=!
1!!
0T!
0$#
1&#
1M
0m!
0q!
03"
07"
0:"
1R#
1C
1N
0O"
1T"
1W"
1X"
0Y"
0Z"
10#
1y"
0U!
1##
1!#
0"#
0~"
0n!
1r!
0["
#200000
0!
0d
0N!
0O!
#210000
1!
1d
1N!
1O!
1R!
1z!
00"
0E"
1G"
1/#
0-#
0H#
0Q!
1S!
0y!
0|!
1~!
09"
1<"
1/"
11"
14"
18"
1;"
1="
1?"
1A"
1C"
0+#
1S#
1<!
0=!
1T!
13"
17"
1:"
0R#
0C
1B
1U!
1m!
1q!
00#
0y"
1n!
0r!
#220000
0!
0d
0N!
0O!
#230000
1!
1d
1N!
1O!
0s!
0R!
0z!
0}!
1!"
10"
1E"
1A#
0/#
0,#
1.#
1-#
1H#
1r!
1Q!
0S!
1y!
0+"
0F"
0<"
1>"
1H"
0/"
01"
04"
08"
0;"
0="
0?"
0A"
0C"
0~
1+#
1B#
0S#
1=!
0T!
0M
0m!
0q!
0-"
03"
07"
0:"
1R#
1C
1M#
10#
1y"
0U!
0n!
0r!
1/"
0+#
13"
17"
1:"
#240000
0!
0d
0N!
0O!
#250000
1!
1d
1N!
1O!
1R!
1z!
0."
0E"
0G"
1I"
0-#
0H#
0Q!
1S!
0y!
1|!
1+"
0>"
1@"
0B#
1S#
1;!
0<!
0=!
0!!
1T!
1-"
0R#
0C
0B
1A
0N
0M#
1U!
1m!
1q!
0/"
00#
0y"
1+#
1n!
1r!
03"
07"
0:"
#260000
0!
0d
0N!
0O!
#270000
1!
1d
1N!
1O!
1s!
0R!
0z!
1}!
1."
00"
1E"
0A#
0M"
0P"
1U"
0\"
1/#
0.#
1-#
1H#
0r!
0%#
1(#
1'#
1Q!
0S!
1y!
0@"
1B"
1F"
1/"
11"
14"
18"
1;"
1="
1?"
1A"
1C"
1~
1L"
0+#
0S#
1=!
1!!
0T!
1M
0>!
0m!
0q!
13"
17"
1:"
1R#
1C
1N
10#
1y"
0.
0U!
0n!
1r!
#280000
0!
0d
0N!
0O!
#290000
1!
1d
1N!
1O!
1R!
1z!
10"
0E"
1G"
0/#
0-#
0H#
0Q!
1S!
0y!
0|!
0~!
1#"
1$"
0B"
0/"
01"
04"
08"
0;"
0="
0?"
0A"
0C"
1+#
0*#
0{"
1S#
1<!
0=!
1T!
03"
07"
0:"
0R#
0C
1B
1U!
1m!
1q!
00#
0y"
1n!
0r!
#300000
0!
0d
0N!
0O!
#310000
1!
1d
1N!
1O!
0s!
0R!
0z!
0}!
0!"
00"
1E"
1A#
1/#
1,#
1.#
1-#
1H#
1r!
1Q!
0S!
1y!
0+"
0F"
0#"
0$"
12"
0H"
1/"
11"
14"
18"
1;"
1="
1?"
1A"
1C"
0~
0+#
1*#
1{"
1B#
0S#
1=!
0T!
0M
0m!
0q!
0-"
13"
17"
1:"
1R#
1C
1M#
10#
1y"
0U!
0n!
0r!
0/"
1+#
03"
07"
0:"
#320000
0!
0d
0N!
0O!
#330000
1!
1d
1N!
1O!
1R!
1z!
0."
0E"
0G"
0I"
0-#
0H#
0Q!
1S!
0y!
1|!
1+"
02"
15"
0B#
1S#
0;!
0<!
0=!
0!!
1T!
1-"
0R#
0C
0B
0A
0N
0M#
1U!
1m!
1q!
1/"
00#
0y"
0+#
1n!
1r!
13"
17"
1:"
#340000
0!
0d
0N!
0O!
#350000
1!
1d
1N!
1O!
1s!
0R!
0z!
1}!
1."
10"
1E"
0A#
1M"
0/#
0.#
1-#
1H#
0r!
0'#
1Q!
0S!
1y!
05"
19"
1F"
0/"
01"
04"
08"
0;"
0="
0?"
0A"
0C"
1~
0L"
1N"
1+#
0S#
1=!
1!!
0T!
0&#
1M
0m!
0q!
03"
07"
0:"
1R#
1C
1N
1O"
0W"
0X"
1Y"
1Z"
10#
1y"
0U!
0##
0!#
1"#
1~"
0n!
1r!
1["
#360000
0!
0d
0N!
0O!
#370000
1!
1d
1N!
1O!
1R!
1z!
00"
0E"
1G"
1/#
0-#
0H#
0Q!
1S!
0y!
0|!
1~!
09"
1<"
1/"
11"
14"
18"
1;"
1="
1?"
1A"
1C"
0+#
1S#
1<!
0=!
1T!
13"
17"
1:"
0R#
0C
1B
1U!
1m!
1q!
00#
0y"
1n!
0r!
#380000
0!
0d
0N!
0O!
#390000
1!
1d
1N!
1O!
0s!
0R!
0z!
0}!
1!"
10"
1E"
1A#
0/#
0,#
1.#
1-#
1H#
1r!
1Q!
0S!
1y!
0+"
0F"
0<"
1>"
1H"
0/"
01"
04"
08"
0;"
0="
0?"
0A"
0C"
0~
1+#
1B#
0S#
1=!
0T!
0M
0m!
0q!
0-"
03"
07"
0:"
1R#
1C
1M#
10#
1y"
0U!
0n!
0r!
1/"
0+#
13"
17"
1:"
#400000
0!
0d
0N!
0O!
#410000
1!
1d
1N!
1O!
1R!
1z!
0."
0E"
0G"
1I"
0-#
0H#
0Q!
1S!
0y!
1|!
1+"
0>"
1@"
0B#
1S#
1;!
0<!
0=!
0!!
1T!
1-"
0R#
0C
0B
1A
0N
0M#
1U!
1m!
1q!
0/"
00#
0y"
1+#
1n!
1r!
03"
07"
0:"
#420000
0!
0d
0N!
0O!
#430000
1!
1d
1N!
1O!
1s!
0R!
0z!
1}!
1."
00"
1E"
0A#
0M"
1P"
1\"
1/#
0.#
1-#
1H#
0r!
0(#
1'#
1Q!
0S!
1y!
0@"
1B"
1F"
1/"
11"
14"
18"
1;"
1="
1?"
1A"
1C"
1~
1L"
0+#
0S#
1=!
1!!
0T!
1M
1>!
0m!
0q!
13"
17"
1:"
1R#
1C
1N
10#
1y"
1.
0U!
0n!
1r!
#440000
0!
0d
0N!
0O!
#450000
1!
1d
1N!
1O!
1R!
1z!
10"
0E"
1G"
0/#
0-#
0H#
0Q!
1S!
0y!
0|!
0~!
1#"
1$"
0B"
0/"
01"
04"
08"
0;"
0="
0?"
0A"
0C"
1+#
0*#
0{"
1S#
1<!
0=!
1T!
03"
07"
0:"
0R#
0C
1B
1U!
1m!
1q!
00#
0y"
1n!
0r!
#460000
0!
0d
0N!
0O!
