fpga/simulation/qsim/rfid-conformance-tester.msim.vcd
$comment
	File created using the following command:
		vcd file rfid-conformance-tester.msim.vcd -direction
$end
$date
	Mon Aug 16 21:10:17 2021
$end
$version
	ModelSim Version 2020.1
$end
$timescale
	1ps
$end

$scope module fm0_encoder_vhd_vec_tst $end
$var wire 1 ! clk $end
$var wire 1 " data_i_out $end
$var wire 1 # data_in [11] $end
$var wire 1 $ data_in [10] $end
$var wire 1 % data_in [9] $end
$var wire 1 & data_in [8] $end
$var wire 1 ' data_in [7] $end
$var wire 1 ( data_in [6] $end
$var wire 1 ) data_in [5] $end
$var wire 1 * data_in [4] $end
$var wire 1 + data_in [3] $end
$var wire 1 , data_in [2] $end
$var wire 1 - data_in [1] $end
$var wire 1 . data_in [0] $end
$var wire 1 / data_out $end
$var wire 1 0 encoded_data_out [15] $end
$var wire 1 1 encoded_data_out [14] $end
$var wire 1 2 encoded_data_out [13] $end
$var wire 1 3 encoded_data_out [12] $end
$var wire 1 4 encoded_data_out [11] $end
$var wire 1 5 encoded_data_out [10] $end
$var wire 1 6 encoded_data_out [9] $end
$var wire 1 7 encoded_data_out [8] $end
$var wire 1 8 encoded_data_out [7] $end
$var wire 1 9 encoded_data_out [6] $end
$var wire 1 : encoded_data_out [5] $end
$var wire 1 ; encoded_data_out [4] $end
$var wire 1 < encoded_data_out [3] $end
$var wire 1 = encoded_data_out [2] $end
$var wire 1 > encoded_data_out [1] $end
$var wire 1 ? encoded_data_out [0] $end
$var wire 1 @ is_free $end
$var wire 1 A mask_out [3] $end
$var wire 1 B mask_out [2] $end
$var wire 1 C mask_out [1] $end
$var wire 1 D mask_out [0] $end
$var wire 1 E need_to_process $end
$var wire 1 F not_encoded_data_out [7] $end
$var wire 1 G not_encoded_data_out [6] $end
$var wire 1 H not_encoded_data_out [5] $end
$var wire 1 I not_encoded_data_out [4] $end
$var wire 1 J not_encoded_data_out [3] $end
$var wire 1 K not_encoded_data_out [2] $end
$var wire 1 L not_encoded_data_out [1] $end
$var wire 1 M not_encoded_data_out [0] $end
$var wire 1 N reduced_clk_out $end
$var wire 1 O tari [11] $end
$var wire 1 P tari [10] $end
$var wire 1 Q tari [9] $end
$var wire 1 R tari [8] $end
$var wire 1 S tari [7] $end
$var wire 1 T tari [6] $end
$var wire 1 U tari [5] $end
$var wire 1 V tari [4] $end
$var wire 1 W tari [3] $end
$var wire 1 X tari [2] $end
$var wire 1 Y tari [1] $end
$var wire 1 Z tari [0] $end

$scope module i1 $end
$var wire 1 [ gnd $end
$var wire 1 \ vcc $end
$var wire 1 ] unknown $end
$var wire 1 ^ devoe $end
$var wire 1 _ devclrn $end
$var wire 1 ` devpor $end
$var wire 1 a ww_devoe $end
$var wire 1 b ww_devclrn $end
$var wire 1 c ww_devpor $end
$var wire 1 d ww_clk $end
$var wire 1 e ww_need_to_process $end
$var wire 1 f ww_tari [11] $end
$var wire 1 g ww_tari [10] $end
$var wire 1 h ww_tari [9] $end
$var wire 1 i ww_tari [8] $end
$var wire 1 j ww_tari [7] $end
$var wire 1 k ww_tari [6] $end
$var wire 1 l ww_tari [5] $end
$var wire 1 m ww_tari [4] $end
$var wire 1 n ww_tari [3] $end
$var wire 1 o ww_tari [2] $end
$var wire 1 p ww_tari [1] $end
$var wire 1 q ww_tari [0] $end
$var wire 1 r ww_data_in [11] $end
$var wire 1 s ww_data_in [10] $end
$var wire 1 t ww_data_in [9] $end
$var wire 1 u ww_data_in [8] $end
$var wire 1 v ww_data_in [7] $end
$var wire 1 w ww_data_in [6] $end
$var wire 1 x ww_data_in [5] $end
$var wire 1 y ww_data_in [4] $end
$var wire 1 z ww_data_in [3] $end
$var wire 1 { ww_data_in [2] $end
$var wire 1 | ww_data_in [1] $end
$var wire 1 } ww_data_in [0] $end
$var wire 1 ~ ww_reduced_clk_out $end
$var wire 1 !! ww_data_i_out $end
$var wire 1 "! ww_encoded_data_out [15] $end
$var wire 1 #! ww_encoded_data_out [14] $end
$var wire 1 $! ww_encoded_data_out [13] $end
$var wire 1 %! ww_encoded_data_out [12] $end
$var wire 1 &! ww_encoded_data_out [11] $end
$var wire 1 '! ww_encoded_data_out [10] $end
$var wire 1 (! ww_encoded_data_out [9] $end
$var wire 1 )! ww_encoded_data_out [8] $end
$var wire 1 *! ww_encoded_data_out [7] $end
$var wire 1 +! ww_encoded_data_out [6] $end
$var wire 1 ,! ww_encoded_data_out [5] $end
$var wire 1 -! ww_encoded_data_out [4] $end
$var wire 1 .! ww_encoded_data_out [3] $end
$var wire 1 /! ww_encoded_data_out [2] $end
$var wire 1 0! ww_encoded_data_out [1] $end
$var wire 1 1! ww_encoded_data_out [0] $end
$var wire 1 2! ww_not_encoded_data_out [7] $end
$var wire 1 3! ww_not_encoded_data_out [6] $end
$var wire 1 4! ww_not_encoded_data_out [5] $end
$var wire 1 5! ww_not_encoded_data_out [4] $end
$var wire 1 6! ww_not_encoded_data_out [3] $end
$var wire 1 7! ww_not_encoded_data_out [2] $end
$var wire 1 8! ww_not_encoded_data_out [1] $end
$var wire 1 9! ww_not_encoded_data_out [0] $end
$var wire 1 :! ww_mask_out [3] $end
$var wire 1 ;! ww_mask_out [2] $end
$var wire 1 <! ww_mask_out [1] $end
$var wire 1 =! ww_mask_out [0] $end
$var wire 1 >! ww_data_out $end
$var wire 1 ?! ww_is_free $end
$var wire 1 @! \need_to_process~input_o\ $end
$var wire 1 A! \tari[0]~input_o\ $end
$var wire 1 B! \tari[1]~input_o\ $end
$var wire 1 C! \tari[2]~input_o\ $end
$var wire 1 D! \tari[3]~input_o\ $end
$var wire 1 E! \tari[4]~input_o\ $end
$var wire 1 F! \tari[5]~input_o\ $end
$var wire 1 G! \tari[6]~input_o\ $end
$var wire 1 H! \tari[7]~input_o\ $end
$var wire 1 I! \tari[8]~input_o\ $end
$var wire 1 J! \tari[9]~input_o\ $end
$var wire 1 K! \tari[10]~input_o\ $end
$var wire 1 L! \tari[11]~input_o\ $end
$var wire 1 M! \~QUARTUS_CREATED_GND~I_combout\ $end
$var wire 1 N! \clk~input_o\ $end
$var wire 1 O! \clk~inputCLKENA0_outclk\ $end
$var wire 1 P! \clock_reducer:i2[5]~feeder_combout\ $end
$var wire 1 Q! \clock_reducer:i2[5]~q\ $end
$var wire 1 R! \Add1~17_sumout\ $end
$var wire 1 S! \clock_reducer:i2[0]~q\ $end
$var wire 1 T! \Add1~18\ $end
$var wire 1 U! \Add1~21_sumout\ $end
$var wire 1 V! \clock_reducer:i2[1]~q\ $end
$var wire 1 W! \Add1~22\ $end
$var wire 1 X! \Add1~25_sumout\ $end
$var wire 1 Y! \clock_reducer:i2[2]~feeder_combout\ $end
$var wire 1 Z! \clock_reducer:i2[2]~q\ $end
$var wire 1 [! \Add1~26\ $end
$var wire 1 \! \Add1~29_sumout\ $end
$var wire 1 ]! \clock_reducer:i2[3]~q\ $end
$var wire 1 ^! \Add1~30\ $end
$var wire 1 _! \Add1~33_sumout\ $end
$var wire 1 `! \clock_reducer:i2[4]~q\ $end
$var wire 1 a! \Add1~34\ $end
$var wire 1 b! \Add1~37_sumout\ $end
$var wire 1 c! \clock_reducer:i2[9]~q\ $end
$var wire 1 d! \Add1~38\ $end
$var wire 1 e! \Add1~1_sumout\ $end
$var wire 1 f! \clock_reducer:i2[6]~q\ $end
$var wire 1 g! \Add1~2\ $end
$var wire 1 h! \Add1~6\ $end
$var wire 1 i! \Add1~9_sumout\ $end
$var wire 1 j! \clock_reducer:i2[8]~q\ $end
$var wire 1 k! \Add1~10\ $end
$var wire 1 l! \Add1~13_sumout\ $end
$var wire 1 m! \Equal1~1_combout\ $end
$var wire 1 n! \Equal1~2_combout\ $end
$var wire 1 o! \clock_reducer:i2[7]~q\ $end
$var wire 1 p! \Add1~5_sumout\ $end
$var wire 1 q! \Equal1~0_combout\ $end
$var wire 1 r! \reduced_clk~0_combout\ $end
$var wire 1 s! \reduced_clk~q\ $end
$var wire 1 t! \data_in[9]~input_o\ $end
$var wire 1 u! \data_in[11]~input_o\ $end
$var wire 1 v! \data_in[10]~input_o\ $end
$var wire 1 w! \data_in[1]~input_o\ $end
$var wire 1 x! \data_in[2]~input_o\ $end
$var wire 1 y! \data_in[0]~input_o\ $end
$var wire 1 z! \data_in[3]~input_o\ $end
$var wire 1 {! \i~3_combout\ $end
$var wire 1 |! \data_encoder:i[0]~q\ $end
$var wire 1 }! \Decoder0~7_combout\ $end
$var wire 1 ~! \i~2_combout\ $end
$var wire 1 !" \data_encoder:i[3]~q\ $end
$var wire 1 "" \i~1_combout\ $end
$var wire 1 #" \data_encoder:i[1]~q\ $end
$var wire 1 $" \Equal0~0_combout\ $end
$var wire 1 %" \i~0_combout\ $end
$var wire 1 &" \data_encoder:i[2]~q\ $end
$var wire 1 '" \data_in[5]~input_o\ $end
$var wire 1 (" \data_in[7]~input_o\ $end
$var wire 1 )" \data_in[6]~input_o\ $end
$var wire 1 *" \data_in[4]~input_o\ $end
$var wire 1 +" \Mux0~4_combout\ $end
$var wire 1 ," \data_in[8]~input_o\ $end
$var wire 1 -" \Mux0~0_combout\ $end
$var wire 1 ." \data_i_out~reg0_q\ $end
$var wire 1 /" \encoded_data~0_combout\ $end
$var wire 1 0" \current_start_value~q\ $end
$var wire 1 1" \encoded_data[0]~1_combout\ $end
$var wire 1 2" \Decoder0~0_combout\ $end
$var wire 1 3" \encoded_data[2]~3_combout\ $end
$var wire 1 4" \Decoder0~1_combout\ $end
$var wire 1 5" \encoded_data[3]~feeder_combout\ $end
$var wire 1 6" \encoded_data[4]~5_combout\ $end
$var wire 1 7" \Decoder0~2_combout\ $end
$var wire 1 8" \encoded_data[5]~feeder_combout\ $end
$var wire 1 9" \encoded_data[6]~7_combout\ $end
$var wire 1 :" \Decoder0~3_combout\ $end
$var wire 1 ;" \encoded_data[8]~9_combout\ $end
$var wire 1 <" \Decoder0~4_combout\ $end
$var wire 1 =" \encoded_data[10]~11_combout\ $end
$var wire 1 >" \Decoder0~5_combout\ $end
$var wire 1 ?" \encoded_data[12]~13_combout\ $end
$var wire 1 @" \Decoder0~6_combout\ $end
$var wire 1 A" \encoded_data[14]~15_combout\ $end
$var wire 1 B" \encoded_data[14]~DUPLICATE_q\ $end
$var wire 1 C" \encoded_data[15]~feeder_combout\ $end
$var wire 1 D" \Add2~1_combout\ $end
$var wire 1 E" \i3~2_combout\ $end
$var wire 1 F" \sending_data:i3[2]~q\ $end
$var wire 1 G" \Equal2~0_combout\ $end
$var wire 1 H" \i3~1_combout\ $end
$var wire 1 I" \sending_data:i3[0]~q\ $end
$var wire 1 J" \Add2~0_combout\ $end
$var wire 1 K" \i3~0_combout\ $end
$var wire 1 L" \sending_data:i3[1]~q\ $end
$var wire 1 M" \i3~3_combout\ $end
$var wire 1 N" \sending_data:i3[3]~q\ $end
$var wire 1 O" \Add2~2_combout\ $end
$var wire 1 P" \Mux1~1_combout\ $end
$var wire 1 Q" \encoded_data[2]~DUPLICATE_q\ $end
$var wire 1 R" \encoded_data[4]~DUPLICATE_q\ $end
$var wire 1 S" \Mux1~2_combout\ $end
$var wire 1 T" \encoded_data[8]~DUPLICATE_q\ $end
$var wire 1 U" \encoded_data[12]~DUPLICATE_q\ $end
$var wire 1 V" \Mux1~3_combout\ $end
$var wire 1 W" \Mux1~0_combout\ $end
$var wire 1 X" \Mux1~4_combout\ $end
$var wire 1 Y" \tmp_data_out~q\ $end
$var wire 1 Z" encoded_data [15] $end
$var wire 1 [" encoded_data [14] $end
$var wire 1 \" encoded_data [13] $end
$var wire 1 ]" encoded_data [12] $end
$var wire 1 ^" encoded_data [11] $end
$var wire 1 _" encoded_data [10] $end
$var wire 1 `" encoded_data [9] $end
$var wire 1 a" encoded_data [8] $end
$var wire 1 b" encoded_data [7] $end
$var wire 1 c" encoded_data [6] $end
$var wire 1 d" encoded_data [5] $end
$var wire 1 e" encoded_data [4] $end
$var wire 1 f" encoded_data [3] $end
$var wire 1 g" encoded_data [2] $end
$var wire 1 h" encoded_data [1] $end
$var wire 1 i" encoded_data [0] $end
$var wire 1 j" \ALT_INV_encoded_data[12]~DUPLICATE_q\ $end
$var wire 1 k" \ALT_INV_encoded_data[8]~DUPLICATE_q\ $end
$var wire 1 l" \ALT_INV_encoded_data[4]~DUPLICATE_q\ $end
$var wire 1 m" \ALT_INV_encoded_data[2]~DUPLICATE_q\ $end
$var wire 1 n" \ALT_INV_data_in[2]~input_o\ $end
$var wire 1 o" \ALT_INV_data_in[1]~input_o\ $end
$var wire 1 p" \ALT_INV_data_in[0]~input_o\ $end
$var wire 1 q" \ALT_INV_data_in[3]~input_o\ $end
$var wire 1 r" \ALT_INV_data_in[11]~input_o\ $end
$var wire 1 s" \ALT_INV_data_in[10]~input_o\ $end
$var wire 1 t" \ALT_INV_data_in[9]~input_o\ $end
$var wire 1 u" \ALT_INV_data_in[8]~input_o\ $end
$var wire 1 v" \ALT_INV_data_in[7]~input_o\ $end
$var wire 1 w" \ALT_INV_data_in[6]~input_o\ $end
$var wire 1 x" \ALT_INV_data_in[5]~input_o\ $end
$var wire 1 y" \ALT_INV_data_in[4]~input_o\ $end
$var wire 1 z" \ALT_INV_Equal1~1_combout\ $end
$var wire 1 {" \ALT_INV_Equal2~0_combout\ $end
$var wire 1 |" \ALT_INV_Equal0~0_combout\ $end
$var wire 1 }" \ALT_INV_data_encoder:i[3]~q\ $end
$var wire 1 ~" \ALT_INV_Add2~2_combout\ $end
$var wire 1 !# \ALT_INV_sending_data:i3[3]~q\ $end
$var wire 1 "# \ALT_INV_Mux1~3_combout\ $end
$var wire 1 ## \ALT_INV_Mux1~2_combout\ $end
$var wire 1 $# \ALT_INV_Mux1~1_combout\ $end
$var wire 1 %# \ALT_INV_Mux1~0_combout\ $end
$var wire 1 &# \ALT_INV_Add2~1_combout\ $end
$var wire 1 '# \ALT_INV_sending_data:i3[2]~q\ $end
$var wire 1 (# \ALT_INV_Add2~0_combout\ $end
$var wire 1 )# \ALT_INV_sending_data:i3[0]~q\ $end
$var wire 1 *# \ALT_INV_sending_data:i3[1]~q\ $end
$var wire 1 +# \ALT_INV_Decoder0~7_combout\ $end
$var wire 1 ,# \ALT_INV_encoded_data~0_combout\ $end
$var wire 1 -# \ALT_INV_data_encoder:i[0]~q\ $end
$var wire 1 .# \ALT_INV_data_encoder:i[1]~q\ $end
$var wire 1 /# \ALT_INV_data_encoder:i[2]~q\ $end
$var wire 1 0# \ALT_INV_current_start_value~q\ $end
$var wire 1 1# \ALT_INV_Equal1~0_combout\ $end
$var wire 1 2# ALT_INV_encoded_data [15] $end
$var wire 1 3# ALT_INV_encoded_data [14] $end
$var wire 1 4# ALT_INV_encoded_data [13] $end
$var wire 1 5# ALT_INV_encoded_data [12] $end
$var wire 1 6# ALT_INV_encoded_data [11] $end
$var wire 1 7# ALT_INV_encoded_data [10] $end
$var wire 1 8# ALT_INV_encoded_data [9] $end
$var wire 1 9# ALT_INV_encoded_data [8] $end
$var wire 1 :# ALT_INV_encoded_data [7] $end
$var wire 1 ;# ALT_INV_encoded_data [6] $end
$var wire 1 <# ALT_INV_encoded_data [5] $end
$var wire 1 =# ALT_INV_encoded_data [4] $end
$var wire 1 ># ALT_INV_encoded_data [3] $end
$var wire 1 ?# ALT_INV_encoded_data [2] $end
$var wire 1 @# ALT_INV_encoded_data [1] $end
$var wire 1 A# ALT_INV_encoded_data [0] $end
$var wire 1 B# \ALT_INV_reduced_clk~q\ $end
$var wire 1 C# \ALT_INV_Mux0~4_combout\ $end
$var wire 1 D# \ALT_INV_clock_reducer:i2[5]~q\ $end
$var wire 1 E# \ALT_INV_clock_reducer:i2[4]~q\ $end
$var wire 1 F# \ALT_INV_clock_reducer:i2[3]~q\ $end
$var wire 1 G# \ALT_INV_clock_reducer:i2[2]~q\ $end
$var wire 1 H# \ALT_INV_clock_reducer:i2[1]~q\ $end
$var wire 1 I# \ALT_INV_clock_reducer:i2[0]~q\ $end
$var wire 1 J# \ALT_INV_clock_reducer:i2[9]~q\ $end
$var wire 1 K# \ALT_INV_clock_reducer:i2[8]~q\ $end
$var wire 1 L# \ALT_INV_clock_reducer:i2[7]~q\ $end
$var wire 1 M# \ALT_INV_clock_reducer:i2[6]~q\ $end
$var wire 1 N# \ALT_INV_Mux0~0_combout\ $end
$var wire 1 O# \ALT_INV_Add1~37_sumout\ $end
$var wire 1 P# \ALT_INV_Add1~33_sumout\ $end
$var wire 1 Q# \ALT_INV_Add1~29_sumout\ $end
$var wire 1 R# \ALT_INV_Add1~25_sumout\ $end
$var wire 1 S# \ALT_INV_Add1~21_sumout\ $end
$var wire 1 T# \ALT_INV_Add1~17_sumout\ $end
$var wire 1 U# \ALT_INV_Add1~13_sumout\ $end
$var wire 1 V# \ALT_INV_Add1~9_sumout\ $end
$var wire 1 W# \ALT_INV_Add1~5_sumout\ $end
$var wire 1 X# \ALT_INV_Add1~1_sumout\ $end
$upscope $end
$upscope $end
$enddefinitions $end
#0
$dumpvars
0!
0"
0/
0@
0E
0N
0[
1\
x]
1^
1_
1`
1a
1b
1c
0d
0e
0~
0!!
0>!
0?!
0@!
0A!
0B!
0C!
0D!
0E!
0F!
0G!
0H!
0I!
0J!
0K!
0L!
xM!
0N!
0O!
0P!
0Q!
1R!
0S!
0T!
0U!
0V!
0W!
0X!
0Y!
0Z!
0[!
0\!
0]!
0^!
0_!
0`!
0a!
0b!
0c!
0d!
0e!
0f!
0g!
0h!
0i!
0j!
0k!
0l!
0m!
0n!
0o!
0p!
0q!
0r!
0s!
0t!
0u!
0v!
1w!
1x!
0y!
0z!
1{!
0|!
0}!
0~!
0!"
0""
0#"
0$"
0%"
0&"
0'"
0("
0)"
1*"
1+"
0,"
1-"
0."
1/"
00"
11"
12"
13"
04"
15"
16"
07"
18"
19"
0:"
1;"
0<"
1="
0>"
1?"
0@"
1A"
0B"
1C"
0D"
0E"
0F"
0G"
1H"
0I"
0J"
0K"
0L"
0M"
0N"
0O"
0P"
0Q"
0R"
0S"
0T"
0U"
0V"
0W"
0X"
0Y"
1j"
1k"
1l"
1m"
0n"
0o"
1p"
1q"
1r"
1s"
1t"
1u"
1v"
1w"
1x"
0y"
1z"
1{"
1|"
1}"
1~"
1!#
1"#
1##
1$#
1%#
1&#
1'#
1(#
1)#
1*#
1+#
0,#
1-#
1.#
1/#
10#
11#
1B#
0C#
1D#
1E#
1F#
1G#
1H#
1I#
1J#
1K#
1L#
1M#
0N#
1O#
1P#
1Q#
1R#
1S#
0T#
1U#
1V#
1W#
1X#
0#
0$
0%
0&
0'
0(
0)
1*
0+
1,
1-
0.
0O
0P
0Q
0R
0S
0T
0U
0V
0W
0X
0Y
0Z
0f
0g
0h
0i
0j
0k
0l
0m
0n
0o
0p
0q
0r
0s
0t
0u
0v
0w
0x
1y
0z
1{
1|
0}
0"!
0#!
0$!
0%!
0&!
0'!
0(!
0)!
0*!
0+!
0,!
0-!
0.!
0/!
00!
01!
02!
03!
04!
05!
06!
07!
08!
19!
0:!
0;!
0<!
0=!
0Z"
0["
0\"
0]"
0^"
0_"
0`"
0a"
0b"
0c"
0d"
0e"
0f"
0g"
0h"
0i"
12#
13#
14#
x5#
16#
17#
18#
x9#
1:#
1;#
1<#
x=#
1>#
x?#
1@#
1A#
00
01
02
03
04
05
06
07
08
09
0:
0;
0<
0=
0>
0?
0A
0B
0C
0D
0F
0G
0H
0I
0J
0K
0L
1M
$end
#10000
1!
1d
1N!
1O!
1S!
1|!
1."
10"
1i"
1h"
0@#
0A#
00#
0-#
0I#
0R!
1T!
0{!
1""
0+"
02"
14"
0/"
01"
03"
06"
09"
0;"
0="
0?"
0A"
1S"
1W"
0%#
0##
1,#
1C#
1T#
10!
11!
1!!
1U!
0-"
05"
08"
0C"
1X"
0S#
1?
1>
1"
1N#
1m!
1q!
1/"
01#
0z"
0,#
1n!
1r!
15"
18"
1C"
#20000
0!
0d
0N!
0O!
#30000
1!
1d
1N!
1O!
1s!
0S!
0|!
1#"
0."
1f"
0B#
1I"
1Y"
0>#
0.#
1-#
1I#
0r!
0)#
1R!
0T!
1{!
04"
17"
1~
0H"
1J"
0T#
1.!
0!!
0U!
0(#
1N
1>!
0m!
0q!
1S#
1<
0"
1K"
0S"
11#
1z"
1/
1##
0n!
1r!
0X"
#40000
0!
0d
0N!
0O!
#50000
1!
1d
1N!
1O!
1S!
1|!
1d"
0<#
0-#
0I#
0R!
1T!
0{!
0""
1%"
07"
1:"
1T#
1,!
1U!
0S#
1:
1m!
1q!
01#
0z"
1n!
0r!
#60000
0!
0d
0N!
0O!
#70000
1!
1d
1N!
1O!
0s!
0S!
0|!
0#"
1&"
1b"
1B#
0:#
0/#
1.#
1-#
1I#
1r!
1R!
0T!
1{!
0:"
1<"
0~
0T#
1*!
0U!
0N
0m!
0q!
1S#
18
11#
1z"
0n!
0r!
#80000
0!
0d
0N!
0O!
#90000
1!
1d
1N!
1O!
1S!
1|!
1`"
08#
0-#
0I#
0R!
1T!
0{!
1""
1$"
1+"
0<"
1>"
0C#
0|"
1T#
1(!
1U!
0""
0%"
0S#
16
1m!
1q!
01#
0z"
1n!
1r!
#100000
0!
0d
0N!
0O!
#110000
1!
1d
1N!
1O!
1s!
0S!
0|!
0&"
1^"
0B#
0I"
1L"
0Y"
06#
1/#
1-#
1I#
0r!
0*#
1)#
1R!
0T!
0$"
1-"
12"
0>"
1P"
1~
1H"
1X"
0$#
0N#
1|"
0T#
1&!
0U!
1N
0>!
0m!
0q!
1{!
0/"
1S#
14
1,#
11#
1z"
0/
0n!
1r!
05"
08"
0C"
#120000
0!
0d
0N!
0O!
#130000
1!
1d
1N!
1O!
1S!
1|!
1."
00"
0i"
0h"
1@#
1A#
10#
0-#
0I#
0R!
1T!
0{!
1""
0+"
02"
14"
1/"
11"
13"
16"
19"
1;"
1="
1?"
1A"
0,#
1C#
1T#
00!
01!
1!!
1U!
0-"
15"
18"
1C"
0S#
0?
0>
1"
1N#
1m!
1q!
0/"
01#
0z"
1,#
1n!
0r!
05"
08"
0C"
#140000
0!
0d
0N!
0O!
#150000
1!
1d
1N!
1O!
0s!
0S!
0|!
1#"
0."
1g"
0f"
1Q"
1B#
0m"
1>#
0.#
1-#
1I#
1r!
1R!
0T!
1{!
04"
17"
0W"
1S"
0~
0##
1%#
0T#
0.!
1/!
0!!
0U!
0N
0m!
0q!
0X"
1S#
1=
0<
0"
11#
1z"
0n!
0r!
#160000
0!
0d
0N!
0O!
#170000
1!
1d
1N!
1O!
1S!
1|!
1e"
0d"
1R"
0l"
1<#
0-#
0I#
0R!
1T!
0{!
0""
1%"
07"
1:"
1T#
0,!
1-!
1U!
0S#
1;
0:
1m!
1q!
01#
0z"
1n!
1r!
#180000
0!
0d
0N!
0O!
#190000
1!
1d
1N!
1O!
1s!
0S!
0|!
0#"
1&"
1c"
0b"
0B#
1I"
1:#
0;#
0/#
1.#
1-#
1I#
0r!
0)#
1R!
0T!
1{!
0:"
1<"
1~
1D"
0H"
0J"
1X"
0T#
0*!
1+!
0U!
1(#
0&#
1N
0m!
0q!
1S#
19
08
1E"
0K"
0P"
11#
1z"
1$#
0n!
1r!
#200000
0!
0d
0N!
0O!
#210000
1!
1d
1N!
1O!
1S!
1|!
1a"
0`"
1T"
0k"
18#
0-#
0I#
0R!
1T!
0{!
1""
1$"
1+"
0<"
1>"
0C#
0|"
1T#
0(!
1)!
1U!
0""
0%"
0S#
17
06
1m!
1q!
01#
0z"
1n!
0r!
#220000
0!
0d
0N!
0O!
#230000
1!
1d
1N!
1O!
0s!
0S!
0|!
0&"
1_"
0^"
1B#
16#
07#
1/#
1-#
1I#
1r!
1R!
0T!
0$"
1-"
12"
0>"
0~
0N#
1|"
0T#
0&!
1'!
0U!
0N
0m!
0q!
1{!
1/"
1S#
15
04
0,#
11#
1z"
0n!
0r!
15"
18"
1C"
#240000
0!
0d
0N!
0O!
#250000
1!
1d
1N!
1O!
1S!
1|!
1."
10"
1i"
1h"
0@#
0A#
00#
0-#
0I#
0R!
1T!
0{!
1""
0+"
02"
14"
0/"
01"
03"
06"
09"
0;"
0="
0?"
0A"
1,#
1C#
1T#
10!
11!
1!!
1U!
0-"
05"
08"
0C"
0S#
1?
1>
1"
1N#
1m!
1q!
1/"
01#
0z"
0,#
1n!
1r!
15"
18"
1C"
#260000
0!
0d
0N!
0O!
#270000
1!
1d
1N!
1O!
1s!
0S!
0|!
1#"
0."
0g"
1f"
0Q"
0B#
1F"
0I"
0L"
1Y"
1m"
0>#
0.#
1-#
1I#
0r!
1*#
1)#
0'#
1R!
0T!
1{!
04"
17"
1~
1H"
0X"
0T#
1.!
0/!
0!!
0U!
1N
1>!
0m!
0q!
1S#
0=
1<
0"
11#
1z"
1/
0n!
1r!
#280000
0!
0d
0N!
0O!
#290000
1!
1d
1N!
1O!
1S!
1|!
0e"
1d"
0R"
1l"
0<#
0-#
0I#
0R!
1T!
0{!
0""
1%"
07"
1:"
1W"
0S"
1##
0%#
1T#
1,!
0-!
1U!
1X"
0S#
0;
1:
1m!
1q!
01#
0z"
1n!
0r!
#300000
0!
0d
0N!
0O!
#310000
1!
1d
1N!
1O!
0s!
0S!
0|!
0#"
1&"
0c"
1b"
1B#
0:#
1;#
0/#
1.#
1-#
1I#
1r!
1R!
0T!
1{!
0:"
1<"
0~
0T#
1*!
0+!
0U!
0N
0m!
0q!
1S#
09
18
11#
1z"
0n!
0r!
#320000
0!
0d
0N!
0O!
#330000
1!
1d
1N!
1O!
1S!
1|!
0a"
1`"
0T"
1k"
08#
0-#
0I#
0R!
1T!
0{!
1""
1$"
1+"
0<"
1>"
0C#
0|"
1T#
1(!
0)!
1U!
0""
0%"
0S#
07
16
1m!
1q!
01#
0z"
1n!
1r!
#340000
0!
0d
0N!
0O!
#350000
1!
1d
1N!
1O!
1s!
0S!
0|!
0&"
0_"
1^"
0B#
1I"
06#
17#
1/#
1-#
1I#
0r!
0)#
1R!
0T!
0$"
1-"
12"
0>"
1~
1G"
0H"
1J"
0X"
0N#
1|"
0T#
1&!
0'!
0U!
0(#
0{"
1N
0m!
0q!
1{!
0/"
1S#
05
14
0E"
1,#
11#
1z"
0n!
1r!
05"
08"
0C"
#360000
0!
0d
0N!
0O!
#370000
1!
1d
1N!
1O!
1S!
1|!
1."
00"
0i"
0h"
1@#
1A#
10#
0-#
0I#
0R!
1T!
0{!
1""
0+"
02"
14"
1/"
11"
13"
16"
19"
1;"
1="
1?"
1A"
0,#
1C#
1T#
00!
01!
1!!
1U!
0-"
15"
18"
1C"
0S#
0?
0>
1"
1N#
1m!
1q!
0/"
01#
0z"
1,#
1n!
0r!
05"
08"
0C"
#380000
0!
0d
0N!
0O!
#390000
1!
1d
1N!
1O!
0s!
0S!
0|!
1#"
0."
1g"
0f"
1Q"
1B#
0m"
1>#
0.#
1-#
1I#
1r!
1R!
0T!
1{!
04"
17"
0~
0T#
0.!
1/!
0!!
0U!
0N
0m!
0q!
1S#
1=
0<
0"
11#
1z"
0n!
0r!
#400000
0!
0d
0N!
0O!
#410000
1!
1d
1N!
1O!
1S!
1|!
1e"
0d"
1R"
0l"
1<#
0-#
0I#
0R!
1T!
0{!
0""
1%"
07"
1:"
1T#
0,!
1-!
1U!
0S#
1;
0:
1m!
1q!
01#
0z"
1n!
1r!
#420000
0!
0d
0N!
0O!
#430000
1!
1d
1N!
1O!
1s!
0S!
0|!
0#"
1&"
1c"
0b"
0B#
0F"
0I"
0Y"
1:#
0;#
0/#
1.#
1-#
1I#
0r!
1)#
1'#
1R!
0T!
1{!
0:"
1<"
1S"
0W"
1~
0D"
0G"
0J"
1X"
1%#
0##
0T#
0*!
1+!
0U!
1(#
1{"
1&#
1N
0>!
0m!
0q!
0X"
1S#
19
08
1H"
1P"
0S"
11#
1z"
0/
1##
0$#
0n!
1r!
#440000
0!
0d
0N!
0O!
#450000
1!
1d
1N!
1O!
1S!
1|!
1a"
0`"
1T"
0k"
18#
0-#
0I#
0R!
1T!
0{!
1""
1$"
1+"
0<"
1>"
0P"
1V"
0"#
1$#
0C#
0|"
1T#
0(!
1)!
1U!
0""
0%"
0S#
17
06
1m!
1q!
01#
0z"
1n!
0r!
#460000
0!
0d
0N!
0O!
#470000
1!
1d
1N!
1O!
0s!
0S!
0|!
0&"
1_"
0^"
1B#
16#
07#
1/#
1-#
1I#
1r!
1R!
0T!
0$"
1-"
12"
0>"
0~
0N#
1|"
0T#
0&!
1'!
0U!
0N
0m!
0q!
1{!
1/"
1S#
15
04
0,#
11#
1z"
0n!
0r!
15"
18"
1C"
#480000
0!
0d
0N!
0O!
#490000
1!
1d
1N!
1O!
1S!
1|!
1."
10"
1i"
1h"
0@#
0A#
00#
0-#
0I#
0R!
1T!
0{!
1""
0+"
02"
14"
0/"
01"
03"
06"
09"
0;"
0="
0?"
0A"
1S"
1W"
0%#
0##
1,#
1C#
1T#
10!
11!
1!!
1U!
0-"
05"
08"
0C"
1X"
0S#
1?
1>
1"
1N#
1m!
1q!
1/"
01#
0z"
0,#
1n!
1r!
15"
18"
1C"
#500000
0!
0d
0N!
0O!
#510000
1!
1d
1N!
1O!
1s!
0S!
0|!
1#"
0."
0g"
1f"
0Q"
0B#
1I"
1Y"
1m"
0>#
0.#
1-#
1I#
0r!
0)#
1R!
0T!
1{!
04"
17"
1~
0H"
1J"
0T#
1.!
0/!
0!!
0U!
0(#
1N
1>!
0m!
0q!
1S#
0=
1<
0"
1K"
0S"
11#
1z"
1/
1##
0n!
1r!
0X"
#520000
0!
0d
0N!
0O!
