fpga/simulation/qsim/rfid-conformance-tester.msim.vcd
$comment
	File created using the following command:
		vcd file rfid-conformance-tester.msim.vcd -direction
$end
$date
	Tue Aug 17 18:04:04 2021
$end
$version
	ModelSim Version 2020.1
$end
$timescale
	1ps
$end

$scope module fm0_encoder_vhd_vec_tst $end
$var wire 1 ! clk $end
$var wire 1 " data_in [11] $end
$var wire 1 # data_in [10] $end
$var wire 1 $ data_in [9] $end
$var wire 1 % data_in [8] $end
$var wire 1 & data_in [7] $end
$var wire 1 ' data_in [6] $end
$var wire 1 ( data_in [5] $end
$var wire 1 ) data_in [4] $end
$var wire 1 * data_in [3] $end
$var wire 1 + data_in [2] $end
$var wire 1 , data_in [1] $end
$var wire 1 - data_in [0] $end
$var wire 1 . data_out $end
$var wire 1 / encoded_data_out [15] $end
$var wire 1 0 encoded_data_out [14] $end
$var wire 1 1 encoded_data_out [13] $end
$var wire 1 2 encoded_data_out [12] $end
$var wire 1 3 encoded_data_out [11] $end
$var wire 1 4 encoded_data_out [10] $end
$var wire 1 5 encoded_data_out [9] $end
$var wire 1 6 encoded_data_out [8] $end
$var wire 1 7 encoded_data_out [7] $end
$var wire 1 8 encoded_data_out [6] $end
$var wire 1 9 encoded_data_out [5] $end
$var wire 1 : encoded_data_out [4] $end
$var wire 1 ; encoded_data_out [3] $end
$var wire 1 < encoded_data_out [2] $end
$var wire 1 = encoded_data_out [1] $end
$var wire 1 > encoded_data_out [0] $end
$var wire 1 ? finished_releasing_data $end
$var wire 1 @ reduced_clk_out $end
$var wire 1 A tari [11] $end
$var wire 1 B tari [10] $end
$var wire 1 C tari [9] $end
$var wire 1 D tari [8] $end
$var wire 1 E tari [7] $end
$var wire 1 F tari [6] $end
$var wire 1 G tari [5] $end
$var wire 1 H tari [4] $end
$var wire 1 I tari [3] $end
$var wire 1 J tari [2] $end
$var wire 1 K tari [1] $end
$var wire 1 L tari [0] $end
$var wire 1 M updating_data_in $end

$scope module i1 $end
$var wire 1 N gnd $end
$var wire 1 O vcc $end
$var wire 1 P unknown $end
$var wire 1 Q devoe $end
$var wire 1 R devclrn $end
$var wire 1 S devpor $end
$var wire 1 T ww_devoe $end
$var wire 1 U ww_devclrn $end
$var wire 1 V ww_devpor $end
$var wire 1 W ww_clk $end
$var wire 1 X ww_updating_data_in $end
$var wire 1 Y ww_tari [11] $end
$var wire 1 Z ww_tari [10] $end
$var wire 1 [ ww_tari [9] $end
$var wire 1 \ ww_tari [8] $end
$var wire 1 ] ww_tari [7] $end
$var wire 1 ^ ww_tari [6] $end
$var wire 1 _ ww_tari [5] $end
$var wire 1 ` ww_tari [4] $end
$var wire 1 a ww_tari [3] $end
$var wire 1 b ww_tari [2] $end
$var wire 1 c ww_tari [1] $end
$var wire 1 d ww_tari [0] $end
$var wire 1 e ww_data_in [11] $end
$var wire 1 f ww_data_in [10] $end
$var wire 1 g ww_data_in [9] $end
$var wire 1 h ww_data_in [8] $end
$var wire 1 i ww_data_in [7] $end
$var wire 1 j ww_data_in [6] $end
$var wire 1 k ww_data_in [5] $end
$var wire 1 l ww_data_in [4] $end
$var wire 1 m ww_data_in [3] $end
$var wire 1 n ww_data_in [2] $end
$var wire 1 o ww_data_in [1] $end
$var wire 1 p ww_data_in [0] $end
$var wire 1 q ww_encoded_data_out [15] $end
$var wire 1 r ww_encoded_data_out [14] $end
$var wire 1 s ww_encoded_data_out [13] $end
$var wire 1 t ww_encoded_data_out [12] $end
$var wire 1 u ww_encoded_data_out [11] $end
$var wire 1 v ww_encoded_data_out [10] $end
$var wire 1 w ww_encoded_data_out [9] $end
$var wire 1 x ww_encoded_data_out [8] $end
$var wire 1 y ww_encoded_data_out [7] $end
$var wire 1 z ww_encoded_data_out [6] $end
$var wire 1 { ww_encoded_data_out [5] $end
$var wire 1 | ww_encoded_data_out [4] $end
$var wire 1 } ww_encoded_data_out [3] $end
$var wire 1 ~ ww_encoded_data_out [2] $end
$var wire 1 !! ww_encoded_data_out [1] $end
$var wire 1 "! ww_encoded_data_out [0] $end
$var wire 1 #! ww_reduced_clk_out $end
$var wire 1 $! ww_data_out $end
$var wire 1 %! ww_finished_releasing_data $end
$var wire 1 &! \updating_data_in~input_o\ $end
$var wire 1 '! \tari[0]~input_o\ $end
$var wire 1 (! \tari[1]~input_o\ $end
$var wire 1 )! \tari[2]~input_o\ $end
$var wire 1 *! \tari[3]~input_o\ $end
$var wire 1 +! \tari[4]~input_o\ $end
$var wire 1 ,! \tari[5]~input_o\ $end
$var wire 1 -! \tari[6]~input_o\ $end
$var wire 1 .! \tari[7]~input_o\ $end
$var wire 1 /! \tari[8]~input_o\ $end
$var wire 1 0! \tari[9]~input_o\ $end
$var wire 1 1! \tari[10]~input_o\ $end
$var wire 1 2! \tari[11]~input_o\ $end
$var wire 1 3! \~QUARTUS_CREATED_GND~I_combout\ $end
$var wire 1 4! \clk~input_o\ $end
$var wire 1 5! \clk~inputCLKENA0_outclk\ $end
$var wire 1 6! \data_in[9]~input_o\ $end
$var wire 1 7! \data_in[11]~input_o\ $end
$var wire 1 8! \data_in[10]~input_o\ $end
$var wire 1 9! \data_in[2]~input_o\ $end
$var wire 1 :! \data_in[3]~input_o\ $end
$var wire 1 ;! \i~1_combout\ $end
$var wire 1 <! \data_encoder:i[1]~q\ $end
$var wire 1 =! \Decoder0~7_combout\ $end
$var wire 1 >! \i~2_combout\ $end
$var wire 1 ?! \data_encoder:i[3]~q\ $end
$var wire 1 @! \i~3_combout\ $end
$var wire 1 A! \data_encoder:i[0]~q\ $end
$var wire 1 B! \data_in[0]~input_o\ $end
$var wire 1 C! \data_in[1]~input_o\ $end
$var wire 1 D! \Equal0~0_combout\ $end
$var wire 1 E! \i~0_combout\ $end
$var wire 1 F! \data_encoder:i[2]~q\ $end
$var wire 1 G! \data_in[5]~input_o\ $end
$var wire 1 H! \data_in[6]~input_o\ $end
$var wire 1 I! \data_in[7]~input_o\ $end
$var wire 1 J! \data_in[4]~input_o\ $end
$var wire 1 K! \Mux0~4_combout\ $end
$var wire 1 L! \data_in[8]~input_o\ $end
$var wire 1 M! \Mux0~0_combout\ $end
$var wire 1 N! \encoded_data~0_combout\ $end
$var wire 1 O! \current_start_value~q\ $end
$var wire 1 P! \encoded_data[0]~1_combout\ $end
$var wire 1 Q! \Decoder0~0_combout\ $end
$var wire 1 R! \encoded_data[2]~3_combout\ $end
$var wire 1 S! \Decoder0~1_combout\ $end
$var wire 1 T! \encoded_data[4]~5_combout\ $end
$var wire 1 U! \Decoder0~2_combout\ $end
$var wire 1 V! \encoded_data[4]~DUPLICATE_q\ $end
$var wire 1 W! \encoded_data[6]~7_combout\ $end
$var wire 1 X! \Decoder0~3_combout\ $end
$var wire 1 Y! \encoded_data[8]~9_combout\ $end
$var wire 1 Z! \Decoder0~4_combout\ $end
$var wire 1 [! \encoded_data[8]~DUPLICATE_q\ $end
$var wire 1 \! \encoded_data[10]~11_combout\ $end
$var wire 1 ]! \Decoder0~5_combout\ $end
$var wire 1 ^! \encoded_data[11]~feeder_combout\ $end
$var wire 1 _! \encoded_data[12]~13_combout\ $end
$var wire 1 `! \Decoder0~6_combout\ $end
$var wire 1 a! \encoded_data[12]~DUPLICATE_q\ $end
$var wire 1 b! \encoded_data[14]~15_combout\ $end
$var wire 1 c! \encoded_data[15]~feeder_combout\ $end
$var wire 1 d! \clock_reducer:i2[8]~q\ $end
$var wire 1 e! \Add1~17_sumout\ $end
$var wire 1 f! \clock_reducer:i2[0]~feeder_combout\ $end
$var wire 1 g! \clock_reducer:i2[0]~q\ $end
$var wire 1 h! \Add1~18\ $end
$var wire 1 i! \Add1~21_sumout\ $end
$var wire 1 j! \clock_reducer:i2[1]~q\ $end
$var wire 1 k! \Add1~22\ $end
$var wire 1 l! \Add1~25_sumout\ $end
$var wire 1 m! \clock_reducer:i2[2]~q\ $end
$var wire 1 n! \Add1~26\ $end
$var wire 1 o! \Add1~29_sumout\ $end
$var wire 1 p! \clock_reducer:i2[3]~feeder_combout\ $end
$var wire 1 q! \clock_reducer:i2[3]~q\ $end
$var wire 1 r! \Add1~30\ $end
$var wire 1 s! \Add1~33_sumout\ $end
$var wire 1 t! \clock_reducer:i2[4]~q\ $end
$var wire 1 u! \Add1~34\ $end
$var wire 1 v! \Add1~37_sumout\ $end
$var wire 1 w! \clock_reducer:i2[5]~q\ $end
$var wire 1 x! \Add1~38\ $end
$var wire 1 y! \Add1~1_sumout\ $end
$var wire 1 z! \clock_reducer:i2[6]~q\ $end
$var wire 1 {! \Add1~2\ $end
$var wire 1 |! \Add1~6\ $end
$var wire 1 }! \Add1~9_sumout\ $end
$var wire 1 ~! \clock_reducer:i2[9]~q\ $end
$var wire 1 !" \Add1~10\ $end
$var wire 1 "" \Add1~13_sumout\ $end
$var wire 1 #" \Equal1~1_combout\ $end
$var wire 1 $" \Equal1~2_combout\ $end
$var wire 1 %" \clock_reducer:i2[7]~q\ $end
$var wire 1 &" \Add1~5_sumout\ $end
$var wire 1 '" \Equal1~0_combout\ $end
$var wire 1 (" \reduced_clk~0_combout\ $end
$var wire 1 )" \reduced_clk~q\ $end
$var wire 1 *" \Equal2~0_combout\ $end
$var wire 1 +" \Add2~0_combout\ $end
$var wire 1 ," \i3~0_combout\ $end
$var wire 1 -" \sending_data:i3[1]~q\ $end
$var wire 1 ." \Add2~1_combout\ $end
$var wire 1 /" \i3~2_combout\ $end
$var wire 1 0" \sending_data:i3[2]~q\ $end
$var wire 1 1" \i3~3_combout\ $end
$var wire 1 2" \sending_data:i3[3]~q\ $end
$var wire 1 3" \Add2~2_combout\ $end
$var wire 1 4" \i3~1_combout\ $end
$var wire 1 5" \sending_data:i3[0]~q\ $end
$var wire 1 6" \Mux1~3_combout\ $end
$var wire 1 7" \Mux1~2_combout\ $end
$var wire 1 8" \Mux1~0_combout\ $end
$var wire 1 9" \Mux1~1_combout\ $end
$var wire 1 :" \Mux1~4_combout\ $end
$var wire 1 ;" \tmp_data_out~q\ $end
$var wire 1 <" encoded_data [15] $end
$var wire 1 =" encoded_data [14] $end
$var wire 1 >" encoded_data [13] $end
$var wire 1 ?" encoded_data [12] $end
$var wire 1 @" encoded_data [11] $end
$var wire 1 A" encoded_data [10] $end
$var wire 1 B" encoded_data [9] $end
$var wire 1 C" encoded_data [8] $end
$var wire 1 D" encoded_data [7] $end
$var wire 1 E" encoded_data [6] $end
$var wire 1 F" encoded_data [5] $end
$var wire 1 G" encoded_data [4] $end
$var wire 1 H" encoded_data [3] $end
$var wire 1 I" encoded_data [2] $end
$var wire 1 J" encoded_data [1] $end
$var wire 1 K" encoded_data [0] $end
$var wire 1 L" \ALT_INV_Add2~1_combout\ $end
$var wire 1 M" \ALT_INV_sending_data:i3[2]~q\ $end
$var wire 1 N" \ALT_INV_Add2~0_combout\ $end
$var wire 1 O" \ALT_INV_sending_data:i3[0]~q\ $end
$var wire 1 P" \ALT_INV_sending_data:i3[1]~q\ $end
$var wire 1 Q" \ALT_INV_Equal1~0_combout\ $end
$var wire 1 R" \ALT_INV_Decoder0~7_combout\ $end
$var wire 1 S" \ALT_INV_encoded_data~0_combout\ $end
$var wire 1 T" \ALT_INV_data_encoder:i[1]~q\ $end
$var wire 1 U" \ALT_INV_data_encoder:i[0]~q\ $end
$var wire 1 V" \ALT_INV_data_encoder:i[2]~q\ $end
$var wire 1 W" \ALT_INV_current_start_value~q\ $end
$var wire 1 X" \ALT_INV_reduced_clk~q\ $end
$var wire 1 Y" ALT_INV_encoded_data [15] $end
$var wire 1 Z" ALT_INV_encoded_data [14] $end
$var wire 1 [" ALT_INV_encoded_data [13] $end
$var wire 1 \" ALT_INV_encoded_data [12] $end
$var wire 1 ]" ALT_INV_encoded_data [11] $end
$var wire 1 ^" ALT_INV_encoded_data [10] $end
$var wire 1 _" ALT_INV_encoded_data [9] $end
$var wire 1 `" ALT_INV_encoded_data [8] $end
$var wire 1 a" ALT_INV_encoded_data [7] $end
$var wire 1 b" ALT_INV_encoded_data [6] $end
$var wire 1 c" ALT_INV_encoded_data [5] $end
$var wire 1 d" ALT_INV_encoded_data [4] $end
$var wire 1 e" ALT_INV_encoded_data [3] $end
$var wire 1 f" ALT_INV_encoded_data [2] $end
$var wire 1 g" ALT_INV_encoded_data [1] $end
$var wire 1 h" ALT_INV_encoded_data [0] $end
$var wire 1 i" \ALT_INV_clock_reducer:i2[5]~q\ $end
$var wire 1 j" \ALT_INV_clock_reducer:i2[4]~q\ $end
$var wire 1 k" \ALT_INV_clock_reducer:i2[3]~q\ $end
$var wire 1 l" \ALT_INV_clock_reducer:i2[2]~q\ $end
$var wire 1 m" \ALT_INV_clock_reducer:i2[1]~q\ $end
$var wire 1 n" \ALT_INV_clock_reducer:i2[0]~q\ $end
$var wire 1 o" \ALT_INV_clock_reducer:i2[9]~q\ $end
$var wire 1 p" \ALT_INV_clock_reducer:i2[8]~q\ $end
$var wire 1 q" \ALT_INV_clock_reducer:i2[7]~q\ $end
$var wire 1 r" \ALT_INV_clock_reducer:i2[6]~q\ $end
$var wire 1 s" \ALT_INV_Mux0~4_combout\ $end
$var wire 1 t" \ALT_INV_Add1~37_sumout\ $end
$var wire 1 u" \ALT_INV_Add1~33_sumout\ $end
$var wire 1 v" \ALT_INV_Add1~29_sumout\ $end
$var wire 1 w" \ALT_INV_Add1~25_sumout\ $end
$var wire 1 x" \ALT_INV_Add1~21_sumout\ $end
$var wire 1 y" \ALT_INV_Add1~17_sumout\ $end
$var wire 1 z" \ALT_INV_Add1~13_sumout\ $end
$var wire 1 {" \ALT_INV_Add1~9_sumout\ $end
$var wire 1 |" \ALT_INV_Add1~5_sumout\ $end
$var wire 1 }" \ALT_INV_Add1~1_sumout\ $end
$var wire 1 ~" \ALT_INV_Mux0~0_combout\ $end
$var wire 1 !# \ALT_INV_data_in[6]~input_o\ $end
$var wire 1 "# \ALT_INV_data_in[4]~input_o\ $end
$var wire 1 ## \ALT_INV_data_in[7]~input_o\ $end
$var wire 1 $# \ALT_INV_data_in[5]~input_o\ $end
$var wire 1 %# \ALT_INV_data_in[10]~input_o\ $end
$var wire 1 &# \ALT_INV_data_in[8]~input_o\ $end
$var wire 1 '# \ALT_INV_data_in[11]~input_o\ $end
$var wire 1 (# \ALT_INV_data_in[9]~input_o\ $end
$var wire 1 )# \ALT_INV_data_in[2]~input_o\ $end
$var wire 1 *# \ALT_INV_data_in[1]~input_o\ $end
$var wire 1 +# \ALT_INV_data_in[0]~input_o\ $end
$var wire 1 ,# \ALT_INV_data_in[3]~input_o\ $end
$var wire 1 -# \ALT_INV_Equal1~1_combout\ $end
$var wire 1 .# \ALT_INV_Equal2~0_combout\ $end
$var wire 1 /# \ALT_INV_Equal0~0_combout\ $end
$var wire 1 0# \ALT_INV_data_encoder:i[3]~q\ $end
$var wire 1 1# \ALT_INV_Add2~2_combout\ $end
$var wire 1 2# \ALT_INV_sending_data:i3[3]~q\ $end
$var wire 1 3# \ALT_INV_Mux1~3_combout\ $end
$var wire 1 4# \ALT_INV_Mux1~2_combout\ $end
$var wire 1 5# \ALT_INV_Mux1~1_combout\ $end
$var wire 1 6# \ALT_INV_Mux1~0_combout\ $end
$upscope $end
$upscope $end
$enddefinitions $end
#0
$dumpvars
0!
0.
0?
0@
xM
0N
1O
xP
1Q
1R
1S
1T
1U
1V
0W
xX
0#!
0$!
0%!
x&!
x'!
x(!
x)!
x*!
x+!
x,!
x-!
x.!
x/!
x0!
x1!
x2!
x3!
04!
05!
16!
07!
18!
09!
1:!
0;!
0<!
0=!
0>!
0?!
1@!
0A!
0B!
0C!
0D!
0E!
0F!
0G!
0H!
1I!
1J!
1K!
0L!
1M!
1N!
0O!
1P!
1Q!
1R!
0S!
1T!
0U!
0V!
1W!
0X!
1Y!
0Z!
0[!
1\!
0]!
1^!
1_!
0`!
0a!
1b!
1c!
0d!
1e!
1f!
0g!
0h!
0i!
0j!
0k!
0l!
0m!
0n!
0o!
0p!
0q!
0r!
0s!
0t!
0u!
0v!
0w!
0x!
0y!
0z!
0{!
0|!
0}!
0~!
0!"
0""
0#"
0$"
0%"
0&"
0'"
0("
0)"
0*"
0+"
0,"
0-"
0."
0/"
00"
01"
02"
03"
14"
05"
06"
07"
08"
09"
0:"
0;"
1L"
1M"
1N"
1O"
1P"
1Q"
1R"
0S"
1T"
1U"
1V"
1W"
1X"
1i"
1j"
1k"
1l"
1m"
1n"
1o"
1p"
1q"
1r"
0s"
1t"
1u"
1v"
1w"
1x"
0y"
1z"
1{"
1|"
1}"
0~"
1!#
0"#
0##
1$#
0%#
1&#
1'#
0(#
1)#
1*#
1+#
0,#
1-#
1.#
1/#
10#
11#
12#
13#
14#
15#
16#
0"
1#
1$
0%
1&
0'
0(
1)
1*
0+
0,
0-
xY
xZ
x[
x\
x]
x^
x_
x`
xa
xb
xc
xd
0e
1f
1g
0h
1i
0j
0k
1l
1m
0n
0o
0p
0q
0r
0s
0t
0u
0v
0w
0x
0y
0z
0{
0|
0}
0~
0!!
0"!
0<"
0="
0>"
0?"
0@"
0A"
0B"
0C"
0D"
0E"
0F"
0G"
0H"
0I"
0J"
0K"
1Y"
1Z"
1["
1\"
1]"
1^"
1_"
1`"
1a"
1b"
1c"
1d"
1e"
1f"
1g"
1h"
0/
00
01
02
03
04
05
06
07
08
09
0:
0;
0<
0=
0>
xA
xB
xC
xD
xE
xF
xG
xH
xI
xJ
xK
xL
$end
#10000
1!
1W
14!
15!
1A!
1O!
1K"
1J"
1g!
0n"
0g"
0h"
0W"
0U"
1;!
0@!
0K!
0Q!
1S!
0N!
0P!
0R!
0T!
0W!
0Y!
0\!
0_!
0b!
17"
18"
0e!
1h!
1y"
06#
04#
1S"
1s"
1!!
1"!
1i!
0M!
0^!
0c!
1:"
0f!
0x"
1>
1=
1~"
1#"
1'"
1N!
0Q"
0-#
0S"
1$"
1("
1^!
1c!
#20000
0!
0W
04!
05!
#30000
1!
1W
14!
15!
1)"
1<!
0A!
1H"
0g!
0X"
15"
1;"
1n"
0e"
1U"
0T"
0("
0O"
1@!
0S!
1U!
1e!
0h!
1#!
1+"
04"
0y"
1}
0i!
0N"
1@
1$!
1f!
0#"
0'"
1x"
1;
1,"
07"
1Q"
1-#
1.
14#
0$"
1("
0:"
#40000
0!
0W
04!
05!
#50000
1!
1W
14!
15!
1A!
1F"
1g!
0n"
0c"
0U"
0;!
0@!
1E!
1K!
0U!
1X!
0e!
1h!
1y"
0s"
1{
1i!
1M!
0f!
0x"
19
0~"
1#"
1'"
0N!
0Q"
0-#
1S"
1$"
0("
0^!
0c!
#60000
0!
0W
04!
05!
#70000
1!
1W
14!
15!
0)"
0<!
0A!
1F!
0O!
0g!
1X"
1n"
1W"
0V"
1U"
1T"
1("
1@!
0K!
0X!
1Z!
1N!
1P!
1R!
1T!
1W!
1Y!
1\!
1_!
1b!
1e!
0h!
0#!
0y"
0S"
1s"
0i!
0@
0M!
1^!
1c!
1f!
0#"
0'"
1x"
1Q"
1-#
1~"
0N!
0$"
0("
1S"
0^!
0c!
#80000
0!
0W
04!
05!
#90000
1!
1W
14!
15!
1A!
1[!
1g!
1C"
0`"
0n"
0U"
1;!
0@!
1K!
0Z!
1]!
0e!
1h!
1y"
0s"
1x
1i!
1M!
0f!
0x"
16
0~"
1#"
1'"
1N!
0Q"
0-#
0S"
1$"
1("
1^!
1c!
#100000
0!
0W
04!
05!
#110000
1!
1W
14!
15!
1)"
1<!
0A!
1O!
1A"
1@"
0g!
0X"
1-"
05"
0;"
1n"
0]"
0^"
0W"
1U"
0T"
0("
1O"
0P"
0M!
1@!
0K!
0]!
1`!
0N!
0P!
0R!
0T!
0W!
0Y!
0\!
0_!
0b!
16"
19"
1e!
0h!
1#!
14"
1:"
0y"
05#
03#
1S"
1s"
1~"
1u
1v
0i!
1@
0$!
1N!
1M!
0^!
0c!
1f!
0#"
0'"
1x"
14
13
1Q"
1-#
0~"
0S"
0.
1^!
1c!
0N!
0$"
1("
1S"
0^!
0c!
#120000
0!
0W
04!
05!
#130000
1!
1W
14!
15!
1A!
0O!
1g!
0n"
1W"
0U"
0;!
1=!
0@!
1D!
0E!
1K!
0`!
1N!
1P!
1R!
1T!
1W!
1Y!
1\!
1_!
1b!
0e!
1h!
1y"
0S"
0s"
0/#
0R"
1i!
0M!
1^!
1c!
0f!
0x"
1~"
1#"
1'"
0N!
0Q"
0-#
1S"
1$"
0("
0^!
0c!
#140000
0!
0W
04!
05!
#150000
1!
1W
14!
15!
0)"
0<!
0A!
0F!
1="
0g!
1X"
1n"
0Z"
1V"
1U"
1T"
1("
1@!
0=!
0D!
1M!
1Q!
1e!
0h!
0#!
0y"
0~"
1/#
1R"
1r
0i!
0@
1N!
1f!
0#"
0'"
1x"
10
1Q"
1-#
0S"
1^!
1c!
0$"
0("
#160000
0!
0W
04!
05!
#170000
1!
1W
14!
15!
1A!
1O!
1g!
0n"
0W"
0U"
1;!
0@!
0K!
0Q!
1S!
0N!
0P!
0R!
0T!
0W!
0Y!
0\!
0_!
0b!
0e!
1h!
1y"
1S"
1s"
1i!
0M!
0^!
0c!
0f!
0x"
1~"
1#"
1'"
1N!
0Q"
0-#
0S"
1$"
1("
1^!
1c!
#180000
0!
0W
04!
05!
#190000
1!
1W
14!
15!
1)"
1<!
0A!
0g!
0X"
15"
1;"
1n"
1U"
0T"
0("
0O"
1@!
0S!
1U!
1e!
0h!
1#!
0+"
1."
04"
0:"
0y"
0i!
0L"
1N"
1@
1$!
1f!
0#"
0'"
1x"
0,"
1/"
06"
09"
1Q"
1-#
1.
15#
13#
0$"
1("
#200000
0!
0W
04!
05!
#210000
1!
1W
14!
15!
1A!
1g!
0n"
0U"
0;!
0@!
1E!
1K!
0U!
1X!
0e!
1h!
1y"
0s"
1i!
1M!
0f!
0x"
0~"
1#"
1'"
0N!
0Q"
0-#
1S"
1$"
0("
0^!
0c!
#220000
0!
0W
04!
05!
#230000
1!
1W
14!
15!
0)"
0<!
0A!
1F!
0O!
0g!
1X"
1n"
1W"
0V"
1U"
1T"
1("
1@!
0K!
0X!
1Z!
1N!
1P!
1R!
1T!
1W!
1Y!
1\!
1_!
1b!
1e!
0h!
0#!
0y"
0S"
1s"
0i!
0@
0M!
1^!
1c!
1f!
0#"
0'"
1x"
1Q"
1-#
1~"
0N!
0$"
0("
1S"
0^!
0c!
#240000
0!
0W
04!
05!
#250000
1!
1W
14!
15!
1A!
1g!
0n"
0U"
1;!
0@!
1K!
0Z!
1]!
0e!
1h!
1y"
0s"
1i!
1M!
0f!
0x"
0~"
1#"
1'"
1N!
0Q"
0-#
0S"
1$"
1("
1^!
1c!
#260000
0!
0W
04!
05!
#270000
1!
1W
14!
15!
1)"
1<!
0A!
1O!
0g!
0X"
0-"
10"
05"
0;"
1n"
0W"
1U"
0T"
0("
1O"
0M"
1P"
0M!
1@!
0K!
0]!
1`!
0N!
0P!
0R!
0T!
0W!
0Y!
0\!
0_!
0b!
1e!
0h!
1#!
14"
1:"
0y"
1S"
1s"
1~"
0i!
1@
0$!
1N!
1M!
0^!
0c!
1f!
0#"
0'"
1x"
1Q"
1-#
0~"
0S"
0.
1^!
1c!
0N!
0$"
1("
1S"
0^!
0c!
#280000
0!
0W
04!
05!
#290000
1!
1W
14!
15!
1A!
0O!
1g!
0n"
1W"
0U"
0;!
1=!
0@!
1D!
0E!
1K!
0`!
1N!
1P!
1R!
1T!
1W!
1Y!
1\!
1_!
1b!
0e!
1h!
1y"
0S"
0s"
0/#
0R"
1i!
0M!
1^!
1c!
0f!
0x"
1~"
1#"
1'"
0N!
0Q"
0-#
1S"
1$"
0("
0^!
0c!
#300000
0!
0W
04!
05!
#310000
1!
1W
14!
15!
0)"
0<!
0A!
0F!
0g!
1X"
1n"
1V"
1U"
1T"
1("
1@!
0=!
0D!
1M!
1Q!
1e!
0h!
0#!
0y"
0~"
1/#
1R"
0i!
0@
1N!
1f!
0#"
0'"
1x"
1Q"
1-#
0S"
1^!
1c!
0$"
0("
#320000
0!
0W
04!
05!
#330000
1!
1W
14!
15!
1A!
1O!
1g!
0n"
0W"
0U"
1;!
0@!
0K!
0Q!
1S!
0N!
0P!
0R!
0T!
0W!
0Y!
0\!
0_!
0b!
0e!
1h!
1y"
1S"
1s"
1i!
0M!
0^!
0c!
0f!
0x"
1~"
1#"
1'"
1N!
0Q"
0-#
0S"
1$"
1("
1^!
1c!
#340000
0!
0W
04!
05!
#350000
1!
1W
14!
15!
1)"
1<!
0A!
0g!
0X"
15"
1;"
1n"
1U"
0T"
0("
0O"
1@!
0S!
1U!
1e!
0h!
1#!
1+"
04"
0:"
0y"
0i!
0N"
1@
1$!
1f!
0#"
0'"
1x"
1,"
16"
08"
1Q"
1-#
1.
16#
03#
0$"
1("
#360000
0!
0W
04!
05!
#370000
1!
1W
14!
15!
1A!
1g!
0n"
0U"
0;!
0@!
1E!
1K!
0U!
1X!
0e!
1h!
1y"
0s"
1i!
1M!
0f!
0x"
0~"
1#"
1'"
0N!
0Q"
0-#
1S"
1$"
0("
0^!
0c!
#380000
0!
0W
04!
05!
#390000
1!
1W
14!
15!
0)"
0<!
0A!
1F!
0O!
0g!
1X"
1n"
1W"
0V"
1U"
1T"
1("
1@!
0K!
0X!
1Z!
1N!
1P!
1R!
1T!
1W!
1Y!
1\!
1_!
1b!
1e!
0h!
0#!
0y"
0S"
1s"
0i!
0@
0M!
1^!
1c!
1f!
0#"
0'"
1x"
1Q"
1-#
1~"
0N!
0$"
0("
1S"
0^!
0c!
#400000
0!
0W
04!
05!
#410000
1!
1W
14!
15!
1A!
1g!
0n"
0U"
1;!
0@!
1K!
0Z!
1]!
0e!
1h!
1y"
0s"
1i!
1M!
0f!
0x"
0~"
1#"
1'"
1N!
0Q"
0-#
0S"
1$"
1("
1^!
1c!
#420000
0!
0W
04!
05!
#430000
1!
1W
14!
15!
1)"
1<!
0A!
1O!
0g!
0X"
1-"
05"
0;"
1n"
0W"
1U"
0T"
0("
1O"
0P"
0M!
1@!
0K!
0]!
1`!
0N!
0P!
0R!
0T!
0W!
0Y!
0\!
0_!
0b!
1e!
0h!
1#!
14"
0y"
1S"
1s"
1~"
0i!
1@
0$!
1N!
1M!
0^!
0c!
1f!
0#"
0'"
1x"
1Q"
1-#
0~"
0S"
0.
1^!
1c!
0N!
0$"
1("
1S"
0^!
0c!
#440000
0!
0W
04!
05!
#450000
1!
1W
14!
15!
1A!
0O!
1g!
0n"
1W"
0U"
0;!
1=!
0@!
1D!
0E!
1K!
0`!
1N!
1P!
1R!
1T!
1W!
1Y!
1\!
1_!
1b!
0e!
1h!
1y"
0S"
0s"
0/#
0R"
1i!
0M!
1^!
1c!
0f!
0x"
1~"
1#"
1'"
0N!
0Q"
0-#
1S"
1$"
0("
0^!
0c!
#460000
0!
0W
04!
05!
#470000
1!
1W
14!
15!
0)"
0<!
0A!
0F!
0g!
1X"
1n"
1V"
1U"
1T"
1("
1@!
0=!
0D!
1M!
1Q!
1e!
0h!
0#!
0y"
0~"
1/#
1R"
0i!
0@
1N!
1f!
0#"
0'"
1x"
1Q"
1-#
0S"
1^!
1c!
0$"
0("
#480000
0!
0W
04!
05!
#490000
1!
1W
14!
15!
1A!
1O!
1g!
0n"
0W"
0U"
1;!
0@!
0K!
0Q!
1S!
0N!
0P!
0R!
0T!
0W!
0Y!
0\!
0_!
0b!
0e!
1h!
1y"
1S"
1s"
1i!
0M!
0^!
0c!
0f!
0x"
1~"
1#"
1'"
1N!
0Q"
0-#
0S"
1$"
1("
1^!
1c!
#500000
0!
0W
04!
05!
#510000
1!
1W
14!
15!
1)"
1<!
0A!
0g!
0X"
15"
1n"
1U"
0T"
0("
0O"
1@!
0S!
1U!
1e!
0h!
1#!
1*"
0+"
0."
13"
04"
0y"
0i!
01#
1L"
1N"
0.#
1@
1f!
0#"
0'"
1x"
17"
18"
0,"
0/"
1:"
1Q"
1-#
06#
04#
0$"
1("
#520000
0!
0W
04!
05!
#530000
1!
1W
14!
15!
1A!
1g!
0n"
0U"
0;!
0@!
1E!
1K!
0U!
1X!
0e!
1h!
1y"
0s"
1i!
1M!
0f!
0x"
0~"
1#"
1'"
0N!
0Q"
0-#
1S"
1$"
0("
0^!
0c!
#540000
0!
0W
04!
05!
#550000
1!
1W
14!
15!
0)"
0<!
0A!
1F!
0O!
0g!
1X"
1n"
1W"
0V"
1U"
1T"
1("
1@!
0K!
0X!
1Z!
1N!
1P!
1R!
1T!
1W!
1Y!
1\!
1_!
1b!
1e!
0h!
0#!
0y"
0S"
1s"
0i!
0@
0M!
1^!
1c!
1f!
0#"
0'"
1x"
1Q"
1-#
1~"
0N!
0$"
0("
1S"
0^!
0c!
#560000
0!
0W
04!
05!
#570000
1!
1W
14!
15!
1A!
1g!
0n"
0U"
1;!
0@!
1K!
0Z!
1]!
0e!
1h!
1y"
0s"
1i!
1M!
0f!
0x"
0~"
1#"
1'"
1N!
0Q"
0-#
0S"
1$"
1("
1^!
1c!
#580000
0!
0W
04!
05!
#590000
1!
1W
14!
15!
1)"
1<!
0A!
1O!
0g!
0X"
0-"
00"
05"
1;"
1n"
0W"
1U"
0T"
0("
1O"
1M"
1P"
0M!
1@!
0K!
0]!
1`!
0N!
0P!
0R!
0T!
0W!
0Y!
0\!
0_!
0b!
1e!
0h!
1#!
0*"
03"
0:"
0y"
1S"
1s"
1~"
0i!
11#
1.#
1@
1$!
1N!
1M!
0^!
0c!
1f!
0#"
0'"
1x"
14"
1:"
1Q"
1-#
0~"
0S"
1.
1^!
1c!
0N!
0$"
1("
1S"
0^!
0c!
#600000
0!
0W
04!
05!
